﻿nm	n	k
210	1.160613868	2.495537086
210.8	1.167584928	2.510750379
211.6	1.174747339	2.526125791
212.4	1.182120483	2.541672606
213.2	1.189707658	2.55737952
214	1.19752153	2.573242044
214.8	1.205576184	2.589252544
215.6	1.213882043	2.605413367
216.4	1.222451078	2.621723238
217.2	1.231301173	2.638188219
218	1.240438025	2.654804379
218.8	1.24987102	2.671575784
219.6	1.259608515	2.688511002
220.4	1.269658695	2.705631886
221.2	1.280031009	2.722980166
222	1.290750141	2.740629878
222.8	1.301883822	2.758699963
223.6	1.313592291	2.777345965
224.4	1.326191065	2.796714061
225.2	1.340187064	2.816826435
226	1.356235494	2.837428469
226.8	1.374969384	2.857847233
227.6	1.396721091	2.876982187
228.4	1.421254146	2.893493019
229.2	1.447636651	2.906139221
230	1.474316464	2.914081885
230.8	1.499510825	2.917548528
231.6	1.521770816	2.917408819
232.4	1.540228002	2.914986089
233.2	1.5546658	2.911693433
234	1.565404308	2.908740749
234.8	1.573006882	2.907026823
235.6	1.578284974	2.907017571
236.4	1.58196512	2.908788311
237.2	1.584540793	2.912280245
238	1.586359183	2.917366854
238.8	1.587625001	2.924005667
239.6	1.5885322	2.931948405
240.4	1.589168923	2.941095079
241.2	1.589591416	2.951406727
242	1.589844207	2.96286748
242.8	1.589975189	2.975365171
243.6	1.590013105	2.988889171
244.4	1.589978222	3.003533843
245.2	1.589911294	3.019185672
246	1.589840604	3.035876734
246.8	1.589801589	3.053721253
247.6	1.589836443	3.072612702
248.4	1.589991814	3.092659255
249.2	1.590325413	3.113890062
250	1.590880223	3.136227907
250.8	1.591759357	3.159912633
251.6	1.592991383	3.184743529
252.4	1.594687482	3.210893079
253.2	1.596911332	3.238299708
254	1.599748047	3.26698508
254.8	1.603313157	3.297006563
255.6	1.607649168	3.328261295
256.4	1.612926777	3.360886295
257.2	1.619142549	3.394700487
258	1.62651161	3.429865773
258.8	1.634997245	3.466174648
259.6	1.644829138	3.503767271
260.4	1.655974801	3.542459702
261.2	1.668622439	3.58231878
262	1.682804078	3.623247102
262.8	1.698587591	3.665184553
263.6	1.716159022	3.708172972
264.4	1.735354663	3.751990379
265.2	1.756641829	3.796874177
266	1.779674639	3.84251725
266.8	1.804798339	3.889087688
267.6	1.832021199	3.936542604
268.4	1.861250406	3.984804772
269.2	1.89320467	4.034243166
270	1.927575295	4.08461865
270.8	1.964868003	4.136056971
271.6	2.005934919	4.188662065
272.4	2.050755575	4.242007241
273.2	2.100278832	4.295751526
274	2.155399053	4.349130612
274.8	2.21567531	4.401144633
275.6	2.281313487	4.450626386
276.4	2.352296343	4.496041935
277.2	2.426735626	4.537050672
278	2.503440476	4.573406522
278.8	2.581434778	4.604814384
279.6	2.659496554	4.632921964
280.4	2.737430151	4.659117602
281.2	2.815872389	4.684612504
282	2.896687468	4.710221469
282.8	2.981304914	4.735929369
283.6	3.071352175	4.76077023
284.4	3.168025981	4.783047106
285.2	3.273089484	4.799298362
286	3.384662665	4.807740567
286.8	3.501298281	4.806314872
287.6	3.620967024	4.793441748
288.4	3.741184442	4.767743819
289.2	3.858757541	4.727927787
290	3.971175853	4.676386966
290.8	4.076329878	4.614450636
291.6	4.172585653	4.543877125
292.4	4.258853346	4.466682216
293.2	4.33386749	4.384737891
294	4.397750472	4.300417821
294.8	4.451723246	4.215745445
295.6	4.496569834	4.132124305
296.4	4.533229505	4.050650089
297.2	4.562708143	3.972123009
298	4.58600785	3.897089709
298.8	4.604055788	3.825901946
299.6	4.617412229	3.759058351
300.4	4.627358115	3.696200634
301.2	4.634560681	3.637244425
302	4.639596906	3.582033383
302.8	4.642956529	3.530371628
303.6	4.645049939	3.482037053
304.4	4.646214293	3.436794343
305.2	4.646724584	3.394408839
306	4.646801072	3.354650384
306.8	4.646618918	3.317303027
307.6	4.646318191	3.282161138
308.4	4.646007597	3.249040103
309.2	4.645773001	3.217764406
310	4.645681062	3.188180442
310.8	4.645787278	3.160184081
311.6	4.646128847	3.13359239
312.4	4.646734201	3.108287106
313.2	4.647622603	3.084162748
314	4.648809969	3.061123835
314.8	4.650303174	3.039081211
315.6	4.652106152	3.01795521
316.4	4.654220165	2.997674155
317.2	4.656640989	2.978173652
318	4.65936385	2.959394446
318.8	4.662382527	2.941284723
319.6	4.665687243	2.923797779
320.4	4.669273094	2.906902686
321.2	4.67313199	2.89056216
322	4.677250496	2.874737415
322.8	4.68161792	2.859399299
323.6	4.686225687	2.844525828
324.4	4.691066957	2.830096676
325.2	4.696133008	2.816094854
326	4.701418504	2.802507262
326.8	4.706917824	2.789323288
327.6	4.712627788	2.776534471
328.4	4.718546357	2.764135077
329.2	4.724672635	2.75212073
330	4.731008565	2.740489015
330.8	4.737555991	2.729240145
331.6	4.744320357	2.718374083
332.4	4.751319137	2.707913135
333.2	4.758568243	2.697868738
334	4.766065739	2.688220159
334.8	4.773824764	2.678971607
335.6	4.781860316	2.670128288
336.4	4.790189855	2.661695859
337.2	4.798832884	2.653679719
338	4.807810153	2.646084932
338.8	4.817143684	2.638917444
339.6	4.826937847	2.632261571
340.4	4.837160139	2.626052401
341.2	4.847838882	2.620294797
342	4.859006071	2.614995601
342.8	4.870695432	2.610161871
343.6	4.882942344	2.605801401
344.4	4.895828251	2.601957391
345.2	4.909493148	2.598700439
346	4.923883463	2.59597137
346.8	4.939057089	2.593791035
347.6	4.95507955	2.59218351
348.4	4.972023829	2.591174629
349.2	4.990166977	2.590893563
350	5.009693494	2.591386482
350.8	5.030610831	2.592594903
351.6	5.053095431	2.594531447
352.4	5.077340588	2.59719646
353.2	5.103887686	2.60065617
354	5.13347974	2.604855513
354.8	5.166001743	2.609477536
355.6	5.201791155	2.614294402
356.4	5.241171998	2.619039693
357.2	5.285763388	2.623013647
358	5.335677706	2.62525686
358.8	5.39044044	2.625119071
359.6	5.450075355	2.62187173
360.4	5.515166418	2.614083131
361.2	5.586247557	2.598589188
362	5.660746586	2.576047925
362.8	5.737840088	2.545883516
363.6	5.816781113	2.506863283
364.4	5.895200953	2.454352721
365.2	5.970980106	2.3927483
366	6.043161352	2.322481675
366.8	6.109894832	2.242802679
367.6	6.166432007	2.15281065
368.4	6.214937426	2.057732785
369.2	6.25524762	1.958383464
370	6.283874269	1.855219885
370.8	6.30062671	1.751224125
371.6	6.309217943	1.647917792
372.4	6.309918778	1.545775206
373.2	6.298640561	1.448132563
374	6.281325957	1.354391662
374.8	6.258816617	1.264367209
375.6	6.230093243	1.180027042
376.4	6.196629511	1.10192799
377.2	6.160584534	1.027972178
378	6.121946171	0.958636492
378.8	6.080642357	0.896382435
379.6	6.038427506	0.837692511
380.4	5.995338476	0.782493093
381.2	5.951467369	0.733524941
382	5.907528572	0.68766331
382.8	5.863531798	0.644580601
383.6	5.819876896	0.606255787
384.4	5.776678927	0.570734109
385.2	5.733846529	0.537383497
386	5.691955755	0.507755177
386.8	5.650856885	0.48043473
387.6	5.610341402	0.454795175
388.4	5.571142293	0.432152119
389.2	5.5328677	0.411240793
390	5.495273918	0.391615156
390.8	5.45927009	0.374451486
391.6	5.424139119	0.358451085
392.4	5.389726281	0.343433238
393.2	5.357095547	0.330422005
394	5.325150168	0.318091678
394.8	5.294134986	0.306684284
395.6	5.264602692	0.296530781
396.4	5.235695379	0.286866002
397.2	5.207928944	0.27804475
398	5.181235619	0.269912103
398.8	5.155094647	0.262125585
399.6	5.130271377	0.255077247
400.4	5.106082926	0.248336155
401.2	5.082537352	0.241908935
402	5.06010969	0.235962009
402.8	5.038071092	0.230163693
403.6	5.016889354	0.224690435
404.4	4.996331209	0.219425505
405.2	4.976139328	0.21427928
406	4.956884422	0.209425823
406.8	4.937884864	0.20463853
407.6	4.919483198	0.200022342
408.4	4.90156358	0.195536523
409.2	4.883901628	0.191115448
410	4.866932507	0.186885065
410.8	4.850131839	0.182693333
411.6	4.833817973	0.17863424
412.4	4.817818808	0.174659848
413.2	4.802070708	0.170751536
414	4.786789316	0.166978897
414.8	4.771625054	0.163234965
415.6	4.75693199	0.159633815
416.4	4.742392322	0.156076691
417.2	4.728152866	0.152612325
418	4.714184222	0.149234314
418.8	4.700372116	0.145904172
419.6	4.686929894	0.14269839
420.4	4.673556541	0.139512531
421.2	4.660566416	0.136459948
422	4.647666118	0.133436683
422.8	4.635039466	0.130509957
423.6	4.622581391	0.127642912
424.4	4.610301605	0.124839457
425.2	4.59825737	0.122122253
426	4.5863096	0.11943932
426.8	4.574654255	0.116865542
427.6	4.563031348	0.114302612
428.4	4.551736977	0.111863779
429.2	4.540473563	0.109435723
430	4.529473043	0.107107645
430.8	4.518548966	0.104808187
431.6	4.507832996	0.102588111
432.4	4.497231311	0.100411456
433.2	4.486790069	0.098296111
434	4.476494436	0.096236367
434.8	4.466319057	0.09422269
435.6	4.45631378	0.092274101
436.4	4.446395135	0.090358731
437.2	4.436667111	0.088515828
438	4.426998437	0.086695782
438.8	4.417534952	0.084953229
439.6	4.408109055	0.083225242
440.4	4.398898151	0.081577826
441.2	4.389707985	0.079938702
442	4.380738368	0.078381417
442.8	4.371777389	0.076827976
443.6	4.363037993	0.075356008
444.4	4.3542996	0.073885085
445.2	4.345781558	0.072493779
446	4.337260832	0.071102221
446.8	4.328953943	0.069787134
447.6	4.320644442	0.068471828
448.4	4.312540515	0.067228688
449.2	4.304437272	0.065986546
450	4.296527726	0.064811276
450.8	4.288625416	0.063639254
451.6	4.280902095	0.062527972
452.4	4.273195502	0.061423078
453.2	4.265651859	0.060372054
454	4.25813741	0.059331303
454.8	4.25076572	0.058336998
455.6	4.243437625	0.057357477
456.4	4.236231088	0.056416584
457.2	4.229085451	0.055495498
458	4.222037504	0.054604838
458.8	4.215069741	0.053739359
459.6	4.208174186	0.052895931
460.4	4.20138033	0.052083353
461.2	4.194630983	0.051284321
462	4.188005786	0.050521937
462.8	4.181396479	0.04976461
463.6	4.174936752	0.049049821
464.4	4.168466993	0.04833289
465.2	4.16216382	0.047661944
466	4.155855277	0.04699024
466.8	4.149677535	0.046353515
467.6	4.143527089	0.045724609
468.4	4.137469977	0.045119931
469.2	4.131473834	0.044531348
470	4.12553211	0.04395672
470.8	4.119685679	0.043406133
471.6	4.113854878	0.042859706
472.4	4.108155802	0.042344891
473.2	4.102448615	0.041828699
474	4.096875187	0.041343662
474.8	4.091310258	0.040861103
475.6	4.085835906	0.040398697
476.4	4.080411599	0.039947688
477.2	4.075031995	0.039506506
478	4.069743559	0.039084982
478.8	4.064454562	0.038663719
479.6	4.059299271	0.038269711
480.4	4.054137084	0.037874745
481.2	4.049072012	0.037498788
482	4.044039886	0.037129529
482.8	4.039055085	0.036769294
483.6	4.034149068	0.036423918
484.4	4.029241325	0.036078477
485.2	4.024457906	0.035755244
486	4.01966869	0.035431277
486.8	4.01496021	0.035120991
487.6	4.010291294	0.034817554
488.4	4.005650702	0.034518787
489.2	4.001098972	0.034234294
490	3.996541949	0.033949185
490.8	3.992085082	0.033679345
491.6	3.987641702	0.033411699
492.4	3.983244277	0.033150696
493.2	3.978912333	0.032899086
494	3.974575678	0.032646955
494.8	3.970348143	0.032409547
495.6	3.966119646	0.03217213
496.4	3.961943999	0.031941399
497.2	3.957821496	0.031717384
498	3.953695589	0.031493061
498.8	3.949675242	0.031281266
499.6	3.94565068	0.031069063
500.4	3.941675848	0.030862395
501.2	3.937751022	0.030661286
502	3.933822289	0.030459796
502.8	3.929991625	0.030268386
503.6	3.926160417	0.03007695
504.4	3.922368082	0.029889245
505.2	3.918631202	0.029706874
506	3.914890762	0.029524174
506.8	3.911230924	0.029348596
507.6	3.907582773	0.029174058
508.4	3.903955439	0.029001224
509.2	3.900396057	0.028834003
510	3.8968333	0.028666496
510.8	3.893327039	0.028503257
511.6	3.889851319	0.028342308
512.4	3.886372882	0.028181113
513.2	3.882981388	0.028026007
514	3.879586933	0.027870645
514.8	3.876219838	0.02771701
515.6	3.872907168	0.02756687
516.4	3.869591537	0.027416489
517.2	3.866329734	0.027269282
518	3.863093668	0.027123549
518.8	3.859854763	0.026977586
519.6	3.856693553	0.026835832
520.4	3.853532609	0.026694021
521.2	3.85038817	0.026552983
522	3.847301619	0.026414882
522.8	3.844212593	0.026276572
523.6	3.841159499	0.026139877
524.4	3.838143595	0.026004867
525.2	3.835125192	0.025869656
526	3.832159101	0.025736682
526.8	3.829211876	0.025604459
527.6	3.826262383	0.025472043
528.4	3.823378118	0.025342286
529.2	3.820497176	0.025212571
530	3.817621531	0.025082974
530.8	3.814807438	0.024955725
531.6	3.81199127	0.024828298
532.4	3.809191011	0.024701384
533.2	3.806439674	0.024576223
534	3.803686218	0.024450889
534.8	3.800957349	0.024326357
535.6	3.798267077	0.024203135
536.4	3.795574902	0.024079746
537.2	3.792913518	0.023957365
538	3.790282595	0.023835973
538.8	3.787649716	0.023714422
539.6	3.785052269	0.023594002
540.4	3.782479219	0.023474337
541.2	3.779904553	0.023354513
542	3.777367457	0.02323591
542.8	3.774850386	0.023117916
543.6	3.772331638	0.02299977
544.4	3.769851937	0.022882867
545.2	3.767390252	0.022766487
546	3.764926961	0.02264996
546.8	3.762501403	0.022534663
547.6	3.760092904	0.022419868
548.4	3.757682864	0.02230493
549.2	3.755309101	0.022191155
550	3.752953428	0.022077916
550.8	3.750596278	0.021964538
551.6	3.748271804	0.021852213
552.4	3.745967785	0.021740513
553.2	3.743662351	0.021628679
554	3.741384238	0.021517744
554.8	3.739129616	0.021407578
555.6	3.736873503	0.021297282
556.4	3.734639195	0.021187684
557.2	3.7324337	0.021079042
558	3.730226904	0.020970274
558.8	3.72803423	0.020861954
559.6	3.725875973	0.02075484
560.4	3.723716467	0.020647603
561.2	3.721562832	0.020540514
562	3.71945071	0.020434919
562.8	3.717337525	0.020329206
563.6	3.715223006	0.020223377
564.4	3.713154156	0.020119217
565.2	3.71108631	0.02001503
566	3.709017179	0.01991073
566.8	3.706981973	0.019807693
567.6	3.704958068	0.019705037
568.4	3.702932925	0.019602271
569.2	3.700929648	0.0195003
570	3.698948949	0.019399161
570.8	3.696967191	0.019297915
571.6	3.694993981	0.01919696
572.4	3.693055064	0.019097349
573.2	3.691114996	0.018997635
574	3.689173909	0.01889782
574.8	3.687272084	0.018799552
575.6	3.685373216	0.018701356
576.4	3.683473507	0.01860306
577.2	3.681597406	0.018505701
578	3.679738971	0.018409029
578.8	3.677879598	0.018312259
579.6	3.676027722	0.018215758
580.4	3.674208399	0.018120605
581.2	3.672388312	0.018025358
582	3.670567189	0.017930021
582.8	3.668777879	0.017836025
583.6	3.666995881	0.017742297
584.4	3.665212882	0.017648481
585.2	3.663443897	0.017555227
586	3.661699599	0.017463008
586.8	3.659954473	0.017370701
587.6	3.658208515	0.017278308
588.4	3.656497013	0.01718743
589.2	3.654788543	0.017096639
590	3.653079276	0.017005764
590.8	3.651384687	0.016915516
591.6	3.649712197	0.016826228
592.4	3.648038942	0.016736859
593.2	3.646364784	0.016647411
594	3.644722241	0.016559402
594.8	3.643083627	0.016471537
595.6	3.641444277	0.016383591
596.4	3.639815457	0.016296101
597.2	3.638211478	0.016209728
598	3.636606792	0.01612328
598.8	3.6350014	0.016036756
599.6	3.633420626	0.015951371
600.4	3.631849769	0.015866413
601.2	3.630278096	0.015781385
602	3.628708362	0.015696406
602.8	3.627169939	0.015612934
603.6	3.625630726	0.015529393
604.4	3.624090999	0.015445781
605.2	3.622564425	0.015362777
606	3.621057787	0.015280712
606.8	3.619550386	0.01519858
607.6	3.618042496	0.01511638
608.4	3.616557211	0.015035274
609.2	3.615081415	0.014954613
610	3.613605157	0.014873884
610.8	3.612128159	0.014793091
611.6	3.610681722	0.014713813
612.4	3.609236369	0.014634549
613.2	3.607790301	0.014555221
614	3.606349201	0.014476115
614.8	3.604933884	0.014398306
615.6	3.603518014	0.014320436
616.4	3.602101449	0.014242506
617.2	3.600695717	0.014165093
618	3.599309585	0.014088673
618.8	3.59792292	0.014012193
619.6	3.596535583	0.013935655
620.4	3.595163153	0.013859866
621.2	3.593805229	0.013784829
622	3.592446932	0.013709734
622.8	3.591087983	0.013634584
623.6	3.589746771	0.013560343
624.4	3.588417045	0.013486675
625.2	3.587086827	0.013412953
626	3.585755978	0.013339177
626.8	3.584444308	0.013266412
627.6	3.58314179	0.013194115
628.4	3.581838799	0.013121766
629.2	3.580535195	0.013049365
630	3.579251378	0.012978005
630.8	3.577975767	0.012907068
631.6	3.576699703	0.01283608
632.4	3.575423184	0.012765041
633.2	3.57416538	0.012695016
634	3.572915812	0.012625434
634.8	3.571665949	0.012555804
635.6	3.570415649	0.012486125
636.4	3.569182146	0.012417363
637.2	3.56795859	0.012349126
638	3.566734616	0.012280841
638.8	3.565510082	0.01221251
639.6	3.56429944	0.01214494
640.4	3.56310102	0.01207804
641.2	3.561902057	0.012011094
642	3.560702692	0.011944103
642.8	3.55951332	0.011877657
643.6	3.558339574	0.011812085
644.4	3.557165442	0.01174647
645.2	3.555990923	0.011680811
646	3.554821503	0.011615419
646.8	3.553671964	0.011551165
647.6	3.552522195	0.011486869
648.4	3.551371914	0.011422532
649.2	3.550221262	0.011358152
650	3.549095178	0.011295181
650.8	3.54796916	0.011232196
651.6	3.546842786	0.011169171
652.4	3.545716055	0.011106106
653.2	3.544606603	0.011044038
654	3.543504143	0.010982353
654.8	3.5424012	0.010920631
655.6	3.541297914	0.01085887
656.4	3.54020375	0.010797639
657.2	3.539123802	0.010737246
658	3.538043385	0.010676817
658.8	3.536962639	0.01061635
659.6	3.53588227	0.010555892
660.4	3.534825057	0.01049678
661.2	3.533767528	0.010437631
662	3.532709684	0.010378447
662.8	3.531651382	0.010319227
663.6	3.530607212	0.010260852
664.4	3.529571376	0.010202975
665.2	3.528535238	0.010145064
666	3.527498795	0.010087119
666.8	3.526465878	0.010029372
667.6	3.525451809	0.009972755
668.4	3.524437449	0.009916105
669.2	3.523422797	0.009859423
670	3.522407854	0.009802707
670.8	3.521407531	0.009746872
671.6	3.520414454	0.009691471
672.4	3.519421096	0.009636039
673.2	3.518427459	0.009580576
674	3.51743596	0.009525229
674.8	3.516463664	0.009471067
675.6	3.515491243	0.009416875
676.4	3.514518411	0.009362653
677.2	3.51354531	0.0093084
678	3.512582903	0.009254798
678.8	3.511630771	0.009201832
679.6	3.510678382	0.009148838
680.4	3.509725592	0.009095815
681.2	3.508772687	0.009042762
682	3.507837487	0.008990817
682.8	3.506905175	0.008939042
683.6	3.505972616	0.008887239
684.4	3.505039809	0.008835409
685.2	3.504109752	0.008783742
686	3.503197007	0.008733171
686.8	3.502284167	0.008682572
687.6	3.501370947	0.008631948
688.4	3.500457633	0.008581296
689.2	3.49955194	0.008531122
690	3.498658306	0.008481716
690.8	3.497764587	0.008432285
691.6	3.49687064	0.008382827
692.4	3.495976465	0.008333344
693.2	3.495093366	0.008284579
694	3.494218344	0.008236331
694.8	3.493343247	0.008188058
695.6	3.492467789	0.008139761
696.4	3.491592111	0.00809144
697.2	3.490730111	0.008043997
698	3.489873343	0.007996894
698.8	3.489016509	0.007949766
699.6	3.488159321	0.007902616
700.4	3.487301924	0.007855442
701.2	3.486459807	0.007809238
702	3.48562136	0.007763269
702.8	3.484782856	0.007717277
703.6	3.483944008	0.007671263
704.4	3.483105101	0.007625226
705.2	3.482280928	0.007580178
706	3.481460007	0.007535333
706.8	3.480638894	0.007490466
707.6	3.479817587	0.007445578
708.4	3.478996087	0.007400668
709.2	3.47818877	0.007356694
710	3.477385437	0.007312959
710.8	3.476581775	0.007269205
711.6	3.475777928	0.00722543
712.4	3.474973896	0.007181634
713.2	3.474181912	0.007138655
714	3.473395364	0.007096022
714.8	3.472608494	0.00705337
715.6	3.47182159	0.007010698
716.4	3.471034364	0.006968007
717.2	3.470256758	0.006925944
718	3.469487195	0.006884399
718.8	3.468717461	0.006842835
719.6	3.467947557	0.006801252
720.4	3.467177482	0.006759651
721.2	3.466412863	0.006718426
722	3.465659475	0.006677957
722.8	3.464905923	0.006637471
723.6	3.464152208	0.006596967
724.4	3.463398185	0.006556445
725.2	3.462645298	0.006515983
726	3.461907992	0.006476579
726.8	3.461170385	0.006437158
727.6	3.460432766	0.00639772
728.4	3.459694846	0.006358264
729.2	3.458956913	0.006318792
730	3.458231114	0.006280138
730.8	3.457509647	0.006241769
731.6	3.45678803	0.006203384
732.4	3.456066262	0.006164982
733.2	3.455344344	0.006126564
734	3.454627776	0.006088511
734.8	3.453921773	0.006051184
735.6	3.453215482	0.00601384
736.4	3.452509192	0.005976482
737.2	3.451802612	0.005939107
738	3.451096033	0.005901717
738.8	3.450403368	0.005865284
739.6	3.449712303	0.005828968
740.4	3.449021246	0.005792637
741.2	3.44833005	0.005756291
742	3.447638716	0.00571993
742.8	3.446952757	0.005683943
743.6	3.446276963	0.005648642
744.4	3.445600892	0.005613327
745.2	3.444924834	0.005577998
746	3.444248499	0.005542655
746.8	3.443572031	0.005507298
747.6	3.442907049	0.005472748
748.4	3.442245572	0.005438436
749.2	3.441583822	0.005404111
750	3.440921945	0.005369773
750.8	3.440260087	0.005335421
751.6	3.439599556	0.005301167
752.4	3.43895242	0.005267845
753.2	3.438305309	0.00523451
754	3.437657931	0.005201162
754.8	3.437010577	0.005167802
755.6	3.436362956	0.005134428
756.4	3.435720889	0.005101436
757.2	3.435088019	0.005069078
758	3.434455032	0.005036709
758.8	3.433821929	0.005004327
759.6	3.43318871	0.004971933
760.4	3.432555374	0.004939526
761.2	3.431930082	0.004907703
762	3.43131065	0.004876298
762.8	3.430690961	0.004844882
763.6	3.430071307	0.004813454
764.4	3.42945154	0.004782014
765.2	3.428831516	0.004750563
766	3.428221883	0.004719817
766.8	3.427616226	0.004689352
767.6	3.427010462	0.004658877
768.4	3.426404737	0.00462839
769.2	3.42579876	0.004597892
770	3.425192821	0.004567383
770.8	3.424597143	0.004537626
771.6	3.42400472	0.004508089
772.4	3.423412049	0.004478542
773.2	3.422819422	0.004448984
774	3.422226546	0.004419416
774.8	3.421633714	0.004389838
775.6	3.421051011	0.004360982
776.4	3.420471571	0.004332361
777.2	3.419892034	0.004303729
778	3.419312398	0.004275088
778.8	3.418732665	0.004246437
779.6	3.418152979	0.004217776
780.4	3.417581682	0.004189737
781.2	3.417014973	0.004162019
782	3.416448023	0.004134291
782.8	3.415880979	0.004106554
783.6	3.415313988	0.004078807
784.4	3.414746756	0.00405105
785.2	3.414186022	0.004023746
786	3.413631933	0.003996917
786.8	3.413077901	0.003970079
787.6	3.412523633	0.003943233
788.4	3.411969422	0.003916377
789.2	3.411414975	0.003889513
790	3.410863516	0.003862862
790.8	3.410321792	0.003836911
791.6	3.409779982	0.003810952
792.4	3.409238086	0.003784985
793.2	3.408696104	0.003759008
794	3.408154036	0.003733024
794.8	3.407611883	0.003707031
795.6	3.40708109	0.003681862
796.4	3.40655139	0.003656767
797.2	3.406021607	0.003631664
798	3.405491742	0.003606553
798.8	3.404961648	0.003581434
799.6	3.404431619	0.003556307
800.4	3.403907677	0.003531622
801.2	3.403389972	0.003507379
802	3.402872042	0.003483128
802.8	3.40235418	0.00345887
803.6	3.401836092	0.003434604
804.4	3.401318073	0.003410331
805.2	3.400799827	0.003386055
806	3.400293709	0.003362651
806.8	3.399787515	0.00333924
807.6	3.3992811	0.003315821
808.4	3.398774609	0.003292396
809.2	3.398268189	0.003268963
810	3.397761547	0.003245523
810.8	3.397260129	0.003222448
811.6	3.396765261	0.003199863
812.4	3.396270468	0.003177271
813.2	3.395775604	0.003154672
814	3.39528052	0.003132067
814.8	3.394785511	0.003109455
815.6	3.394290283	0.003086836
816.4	3.393804118	0.003064861
817.2	3.393320536	0.003043082
818	3.392836885	0.003021297
818.8	3.392353313	0.002999505
819.6	3.391869524	0.002977707
820.4	3.391385666	0.002955903
821.2	3.390901887	0.0029341
822	3.390429248	0.002913121
822.8	3.389956691	0.002892137
823.6	3.38948392	0.002871147
824.4	3.389011231	0.00285015
825.2	3.388538329	0.002829148
826	3.388065508	0.002808139
826.8	3.387594393	0.002787261
827.6	3.387132808	0.002767064
828.4	3.386671012	0.002746861
829.2	3.386209302	0.002726651
830	3.385747528	0.002706437
830.8	3.385285544	0.002686216
831.6	3.384823645	0.00266599
832.4	3.384364195	0.002645946
833.2	3.383912957	0.002626517
834	3.383461807	0.002607082
834.8	3.383010596	0.002587643
835.6	3.382559178	0.002568198
836.4	3.382107848	0.002548747
837.2	3.38165631	0.002529291
838	3.381207077	0.002509991
838.8	3.380766364	0.002491318
839.6	3.380325593	0.00247264
840.4	3.379884765	0.002453957
841.2	3.379443879	0.002435269
842	3.379003084	0.002416575
842.8	3.378562083	0.002397877
843.6	3.378121913	0.002379235
844.4	3.377691309	0.002361305
845.2	3.377260797	0.00234337
846	3.376830083	0.00232543
846.8	3.376399462	0.002307486
847.6	3.375968786	0.002289537
848.4	3.375537907	0.002271584
849.2	3.375107121	0.002253625
850	3.374685171	0.002236315
850.8	3.374264649	0.002219111
851.6	3.373844076	0.002201902
852.4	3.37342345	0.002184689
853.2	3.373002772	0.002167471
854	3.372582041	0.002150249
854.8	3.372161258	0.002133023
855.6	3.37174591	0.002116192
856.4	3.371335256	0.002099705
857.2	3.370924553	0.002083215
858	3.370513799	0.00206672
858.8	3.370103144	0.002050221
859.6	3.369692291	0.002033718
860.4	3.369281388	0.002017211
861.2	3.368871622	0.002000781
862	3.368470564	0.001985
862.8	3.368069459	0.001969215
863.6	3.367668306	0.001953426
864.4	3.367267253	0.001937634
865.2	3.366866005	0.001921837
866	3.366464708	0.001906037
866.8	3.366063364	0.001890232
867.6	3.365667767	0.001874844
868.4	3.365276134	0.001859751
869.2	3.364884605	0.001844654
870	3.364492881	0.001829554
870.8	3.364101112	0.00181445
871.6	3.363709297	0.001799343
872.4	3.363317586	0.001784232
873.2	3.36292568	0.001769117
874	3.362542948	0.001754669
874.8	3.362160619	0.001740252
875.6	3.361778246	0.001725831
876.4	3.36139583	0.001711408
877.2	3.361013371	0.001696981
878	3.360630868	0.00168255
878.8	3.360248322	0.001668116
879.6	3.359867815	0.001653823
880.4	3.359494708	0.001640073
881.2	3.359121559	0.00162632
882	3.358748368	0.001612563
882.8	3.358374987	0.001598804
883.6	3.358001714	0.001585041
884.4	3.357628399	0.001571275
885.2	3.357255043	0.001557506
886	3.356884923	0.001543975
886.8	3.356520869	0.001530876
887.6	3.356156776	0.001517774
888.4	3.355792643	0.001504668
889.2	3.355428471	0.00149156
890	3.35506426	0.001478449
890.8	3.354700009	0.001465335
891.6	3.354335718	0.001452218
892.4	3.353974817	0.001439358
893.2	3.353619244	0.001426897
894	3.353263783	0.001414433
894.8	3.352908136	0.001401967
895.6	3.352552599	0.001389498
896.4	3.352196876	0.001377027
897.2	3.351841264	0.001364552
898	3.351485466	0.001352075
898.8	3.351132614	0.001339797
899.6	3.350785843	0.001327962
900.4	3.350439185	0.001316125
901.2	3.350092491	0.001304285
902	3.349745613	0.001292443
902.8	3.349398848	0.001280598
903.6	3.349051897	0.00126875
904.4	3.34870506	0.0012569
905.2	3.348359083	0.001245119
906	3.348020687	0.001233898
906.8	3.347682257	0.001222674
907.6	3.347343793	0.001211448
908.4	3.347005294	0.001200219
909.2	3.346666762	0.001188988
910	3.346328195	0.001177755
910.8	3.345989594	0.001166519
911.6	3.345650958	0.001155281
912.4	3.345319314	0.001144533
913.2	3.34498928	0.00113391
914	3.344659215	0.001123286
914.8	3.344329116	0.001112659
915.6	3.343998985	0.00110203
916.4	3.343668822	0.001091398
917.2	3.343338626	0.001080765
918	3.343008547	0.001070129
918.8	3.342681128	0.001059705
919.6	3.342359212	0.001049671
920.4	3.342037265	0.001039635
921.2	3.341715287	0.001029597
922	3.341393428	0.001019557
922.8	3.341071388	0.001009515
923.6	3.340749317	0.000999472
924.4	3.340427215	0.000989426
925.2	3.340105082	0.000979378
926	3.339789356	0.000969792
926.8	3.339475546	0.000960332
927.6	3.339161707	0.00095087
928.4	3.338847838	0.000941407
929.2	3.33853394	0.000931941
930	3.338220012	0.000922474
930.8	3.337906055	0.000913005
931.6	3.337592069	0.000903534
932.4	3.337278652	0.000894112
933.2	3.336972548	0.000885216
934	3.336666415	0.000876318
934.8	3.336360255	0.000867419
935.6	3.336054067	0.000858519
936.4	3.33574785	0.000849616
937.2	3.335441606	0.000840712
938	3.335135333	0.000831806
938.8	3.334829033	0.000822898
939.6	3.334524803	0.000814135
940.4	3.334226544	0.000805789
941.2	3.333928259	0.000797441
942	3.333629947	0.000789092
942.8	3.333331758	0.000780741
943.6	3.333033393	0.000772389
944.4	3.332735001	0.000764036
945.2	3.332436582	0.00075568
946	3.332138136	0.000747323
946.8	3.331841915	0.000739127
947.6	3.33155092	0.000731319
948.4	3.33126005	0.000723509
949.2	3.330969005	0.000715697
950	3.330678084	0.000707885
950.8	3.330386988	0.00070007
951.6	3.330096017	0.000692255
952.4	3.329804869	0.000684438
953.2	3.329513847	0.00067662
954	3.329224151	0.000668903
954.8	3.328940888	0.00066162
955.6	3.328657602	0.000654336
956.4	3.328374291	0.00064705
957.2	3.328090805	0.000639764
958	3.327807446	0.000632476
958.8	3.327524063	0.000625186
959.6	3.327240506	0.000617896
960.4	3.326957074	0.000610604
961.2	3.326673618	0.00060331
962	3.326397053	0.000596514
962.8	3.326120766	0.000589744
963.6	3.325844455	0.000582972
964.4	3.325568272	0.000576199
965.2	3.325291916	0.000569424
966	3.325015687	0.000562649
966.8	3.324739284	0.000555872
967.6	3.324462859	0.000549094
968.4	3.324186561	0.000542315
969.2	3.323914302	0.000535823
970	3.32364533	0.000529554
970.8	3.323376336	0.000523283
971.6	3.323107321	0.000517011
972.4	3.322838284	0.000510739
973.2	3.322569225	0.000504465
974	3.322300144	0.00049819
974.8	3.322031042	0.000491914
975.6	3.321761917	0.000485637
976.4	3.321492922	0.000479373
977.2	3.32123098	0.000473592
978	3.320969018	0.000467811
978.8	3.320707035	0.000462028
979.6	3.320445032	0.000456245
980.4	3.320183007	0.000450461
981.2	3.319920812	0.000444675
982	3.319658746	0.000438889
982.8	3.31939666	0.000433102
983.6	3.319134553	0.000427314
984.4	3.318874836	0.00042169
985.2	3.318619769	0.000416385
986	3.318364532	0.00041108
986.8	3.318109426	0.000405773
987.6	3.317854301	0.000400466
988.4	3.317599005	0.000395157
989.2	3.31734384	0.000389848
990	3.317088655	0.000384538
990.8	3.316833451	0.000379228
991.6	3.316578077	0.000373916
992.4	3.316326301	0.000368839
993.2	3.316077974	0.000363998
994	3.315829629	0.000359156
994.8	3.315581265	0.000354313
995.6	3.315332883	0.000349469
996.4	3.315084481	0.000344625
997.2	3.314836062	0.000339779
998	3.314587623	0.000334933
998.8	3.314339166	0.000330087
999.6	3.314090691	0.000325239
1002.5	3.313210693	0.000309092
1005	3.312454994	0.000295363
1007.5	3.311698972	0.000281628
1010	3.310958482	0.000268924
1012.5	3.310223114	0.000256564
1015	3.309487583	0.000244198
1017.5	3.308760803	0.00023242
1020	3.308045352	0.000221385
1022.5	3.307329594	0.000210344
1025	3.306615345	0.000199406
1027.5	3.305919545	0.000189647
1030	3.305223749	0.000179884
1032.5	3.304527656	0.000170117
1035	3.303844431	0.00016117
1037.5	3.303167726	0.000152632
1040	3.30249073	0.000144091
1042.5	3.301817533	0.000135773
1045	3.301159799	0.000128401
1047.5	3.300501934	0.000121025
1050	3.299844089	0.000113647
1052.5	3.299198389	0.000106998
1055	3.298559081	0.000100722
1057.5	3.297919649	9.44435E-05
1060	3.297281306	8.82329E-05
1062.5	3.296660129	8.29798E-05
1065	3.296038836	7.77247E-05
1067.5	3.295417273	7.24675E-05
1070	3.294803485	6.75985E-05
1072.5	3.294200207	6.32808E-05
1075	3.29359697	5.89614E-05
1077.5	3.292993471	5.46404E-05
1080	3.292402619	5.0907E-05
1082.5	3.291817128	4.74301E-05
1085	3.291231381	4.3952E-05
1087.5	3.290645682	4.04725E-05
1090	3.290075531	3.76705E-05
1092.5	3.289506802	3.49328E-05
1095	3.288937823	3.21941E-05
1097.5	3.288369961	2.94939E-05
1100	3.287818274	2.73901E-05
1102.5	3.287266646	2.52855E-05
1105	3.286714773	2.31802E-05
1107.5	3.286165242	2.11499E-05
1110	3.285630077	1.95731E-05
1112.5	3.285094824	1.79957E-05
1115	3.284559331	1.64178E-05
1117.5	3.28402634	1.49049E-05
1120	3.283506967	1.37535E-05
1122.5	3.282987511	1.26019E-05
1125	3.282467974	1.14498E-05
1127.5	3.281949878	1.03278E-05
1130	3.281446632	9.50928E-06
1132.5	3.280943309	8.69053E-06
1135	3.28043991	7.87154E-06
1137.5	3.279936432	7.05226E-06
1140	3.279447667	6.4741E-06
1142.5	3.278959439	5.90733E-06
1145	3.278471138	5.34036E-06
1147.5	3.277982916	4.77331E-06
1150	3.277505606	4.34317E-06
1152.5	3.277032194	3.96091E-06
1155	3.276558713	3.57851E-06
1157.5	3.276085011	3.19608E-06
1160	3.27561811	2.87249E-06
1162.5	3.275159538	2.62108E-06
1165	3.274700902	2.3698E-06
1167.5	3.274242202	2.11827E-06
1170	3.273784507	1.87352E-06
1172.5	3.273340037	1.71227E-06
1175	3.272895507	1.55087E-06
1177.5	3.272450764	1.38957E-06
1180	3.272006112	1.22806E-06
1182.5	3.271570265	1.10389E-06
1185	3.27113971	1.00271E-06
1187.5	3.27070925	9.01489E-07
1190	3.270278581	8.0079E-07
1192.5	3.269848926	7.02096E-07
1195	3.269431602	6.39883E-07
1197.5	3.269014377	5.77888E-07
1200	3.268596947	5.16191E-07
1202.5	3.268179463	4.53935E-07
1205	3.267768046	4.03158E-07
1207.5	3.267363922	3.66217E-07
1210	3.266959902	3.27826E-07
1212.5	3.266555678	2.90477E-07
1215	3.266151405	2.54631E-07
1217.5	3.265756421	2.28916E-07
1220	3.265365064	2.06477E-07
1222.5	3.26497366	1.83714E-07
1225	3.264582209	1.63234E-07
1227.5	3.264190558	1.39785E-07
1230	3.263810503	1.1151E-07
1232.5	3.263431476	8.42937E-08
1235	3.263052559	5.96046E-08
1237.5	3.262673444	2.98023E-08
1240	3.262294285	0
1242.5	3.261927498	0
1245	3.261560669	0
1247.5	3.261193647	0
1250	3.260826736	0
1252.5	3.260459784	0
1255	3.260104753	0
1257.5	3.259749837	0
1260	3.259394882	0
1262.5	3.259039889	0
1265	3.258684704	0
1267.5	3.258339915	0
1270	3.257996317	0
1272.5	3.257652683	0
1275	3.257309166	0
1277.5	3.256965459	0
1280	3.256629392	0
1282.5	3.256297284	0
1285	3.255965141	0
1287.5	3.255632965	0
1290	3.255300754	0
1292.5	3.254972197	0
1295	3.254650826	0
1297.5	3.25432927	0
1300	3.254007836	0
1302.5	3.253686371	0
1305	3.25336472	0
1307.5	3.253052874	0
1310	3.252742074	0
1312.5	3.252431398	0
1315	3.252120539	0
1317.5	3.25180965	0
1320	3.251502422	0
1322.5	3.251202085	0
1325	3.250901875	0
1327.5	3.250601483	0
1330	3.250301063	0
1332.5	3.250000769	0
1335	3.249707218	0
1337.5	3.249417179	0
1340	3.249127114	0
1342.5	3.248836869	0
1345	3.248546752	0
1347.5	3.248256609	0
1350	3.247975061	0
1352.5	3.247694721	0
1355	3.247414356	0
1357.5	3.247134121	0
1360	3.246853708	0
1362.5	3.24657327	0
1365	3.246301896	0
1367.5	3.246030961	0
1370	3.245760003	0
1372.5	3.245489023	0
1375	3.245217866	0
1377.5	3.244946841	0
1380	3.244684422	0
1382.5	3.244422907	0
1385	3.244161525	0
1387.5	3.243900122	0
1390	3.243638543	0
1392.5	3.243377098	0
1395	3.243121953	0
1397.5	3.242869717	0
1400	3.242617307	0
1402.5	3.242365032	0
1405	3.242112737	0
1407.5	3.241860268	0
1410	3.241611173	0
1412.5	3.241367613	0
1415	3.241124033	0
1417.5	3.240880436	0
1420	3.240636666	0
1422.5	3.240393032	0
1425	3.240149379	0
1427.5	3.239913579	0
1430	3.239678688	0
1432.5	3.239443779	0
1435	3.239208854	0
1437.5	3.238973912	0
1440	3.238738952	0
1442.5	3.238506137	0
1445	3.23827979	0
1447.5	3.238053428	0
1450	3.237826895	0
1452.5	3.2376005	0
1455	3.23737409	0
1457.5	3.23714751	0
1460	3.23692493	0
1462.5	3.23670666	0
1465	3.236488375	0
1467.5	3.236270075	0
1470	3.236051607	0
1472.5	3.235833278	0
1475	3.235614934	0
1477.5	3.235400593	0
1480	3.235190103	0
1482.5	3.234979444	0
1485	3.234768925	0
1487.5	3.234558239	0
1490	3.234347693	0
1492.5	3.234136979	0
1495	3.233929653	0
1497.5	3.233726952	0
1500	3.233524238	0
1502.5	3.233321512	0
1505	3.233118773	0
1507.5	3.232916021	0
1510	3.232713257	0
1512.5	3.232511408	0
1515	3.232316352	0
1517.5	3.23212113	0
1520	3.231925896	0
1522.5	3.231730806	0
1525	3.231535548	0
1527.5	3.231340279	0
1530	3.231145153	0
1532.5	3.230954658	0
1535	3.230766782	0
1537.5	3.230578895	0
1540	3.230390998	0
1542.5	3.23020309	0
1545	3.230015325	0
1547.5	3.229827395	0
1550	3.229639454	0
1552.5	3.229458469	0
1555	3.229277628	0
1557.5	3.229096778	0
1560	3.228915917	0
1562.5	3.228734892	0
1565	3.228554011	0
1567.5	3.22837312	0
1570	3.228193148	0
1572.5	3.228019052	0
1575	3.227845102	0
1577.5	3.227670987	0
1580	3.227496863	0
1582.5	3.227322729	0
1585	3.227148587	0
1587.5	3.226974434	0
1590	3.226801047	0
1592.5	3.22663385	0
1595	3.226466643	0
1597.5	3.226299583	0
1600	3.226132359	0
1602.5	3.225965127	0
1605	3.225798041	0
1607.5	3.225630791	0
1610	3.225463533	0
1612.5	3.225301691	0
1615	3.225140772	0
1617.5	3.224979845	0
1620	3.224819065	0
1622.5	3.224658121	0
1625	3.22449717	0
1627.5	3.224336211	0
1630	3.224175398	0
1632.5	3.224016749	0
1635	3.22386228	0
1637.5	3.223707958	0
1640	3.223553474	0
1642.5	3.223398982	0
1645	3.223244483	0
1647.5	3.223089977	0
1650	3.222935618	0
1652.5	3.222781097	0
1655	3.222630602	0
1657.5	3.222482273	0
1660	3.222333937	0
1662.5	3.222185594	0
1665	3.222037089	0
1667.5	3.221888732	0
1670	3.221740368	0
1672.5	3.221591843	0
1675	3.221443465	0
1677.5	3.221299272	0
1680	3.22115678	0
1682.5	3.221014126	0
1685	3.220871621	0
1687.5	3.220728955	0
1690	3.220586437	0
1692.5	3.220443758	0
1695	3.220301073	0
1697.5	3.220158536	0
1700	3.220019099	0
