nm	n	k
187.8787879	0.826484085	2.585774534
188.449848	0.834235529	2.595702201
189.0243902	0.841953227	2.605655433
189.6024465	0.849638823	2.615642011
190.1840491	0.857293999	2.625668677
190.7692308	0.864920492	2.635744004
191.0631741	0.868723849	2.640801796
191.3580247	0.872521201	2.645873815
191.6537867	0.876312505	2.650961827
191.9504644	0.880097938	2.656067465
192.248062	0.883878739	2.661189138
192.5465839	0.887654681	2.666329656
192.8460342	0.89142626	2.671490179
193.1464174	0.895194417	2.676669954
193.4477379	0.898959131	2.681871085
193.75	0.902720768	2.687094488
194.0532081	0.906480135	2.692341404
194.3573668	0.910237868	2.697611346
194.6624804	0.913994644	2.702905882
194.9685535	0.91775097	2.708225959
195.2755906	0.921506898	2.713573283
195.5835962	0.925263478	2.718948235
195.892575	0.929021642	2.72435042
196.2025316	0.932781752	2.729781639
196.5134707	0.936544714	2.735243134
196.8253968	0.940310939	2.740735424
197.1383148	0.94408104	2.746260004
197.4522293	0.947856013	2.751817222
197.7671451	0.951637125	2.757406611
198.0830671	0.955424192	2.763030833
198.4	0.959218785	2.768689523
198.7179487	0.963021696	2.774383497
199.0369181	0.966834041	2.780112599
199.3569132	0.970655806	2.785880416
199.6779388	0.974488532	2.791685494
200	0.978333078	2.79752884
200.3231018	0.982190399	2.803411133
200.6472492	0.986061927	2.809332683
200.9724473	0.98994762	2.815295418
201.2987013	0.993848887	2.821299632
201.6260163	0.997767576	2.82734383
201.9543974	1.001703587	2.833431502
202.2838499	1.005658458	2.839562455
202.6143791	1.009633277	2.845737225
202.9459902	1.013629673	2.851954788
203.2786885	1.017647569	2.858217902
203.6124795	1.021688749	2.864526994
203.9473684	1.025755076	2.870880261
204.2833608	1.02984669	2.877280696
204.620462	1.033965141	2.88372778
204.9586777	1.038111688	2.890221769
205.2980132	1.042287528	2.89676497
205.6384743	1.046494004	2.903354904
205.9800664	1.050732446	2.909993415
206.3227953	1.055003023	2.916683112
206.6666667	1.059307715	2.923422965
207.0116861	1.063647292	2.930214764
207.3578595	1.068024044	2.93705607
207.7051926	1.072439333	2.94394788
208.0536913	1.076893976	2.950890312
208.4033613	1.08139001	2.95788427
208.7542088	1.08592841	2.964928416
209.1062395	1.090511033	2.972024952
209.4594595	1.095138415	2.979172729
209.8138748	1.099812862	2.986372604
210.1694915	1.104535798	2.993624113
210.5263158	1.109308221	3.000928811
210.8843537	1.114131733	3.008285645
211.2436116	1.119008289	3.015694373
211.6040956	1.123938842	3.023157376
211.965812	1.128924971	3.03067395
212.3287671	1.133968287	3.038243255
212.6929674	1.139070619	3.045867344
213.0584192	1.144233331	3.053545466
213.4251291	1.149458235	3.061277386
213.7931034	1.154747293	3.069064566
214.1623489	1.160103141	3.076902712
214.532872	1.165526863	3.084794623
214.9046794	1.171020833	3.092741307
215.2777778	1.176586104	3.100742469
215.6521739	1.182224849	3.10879906
216.0278746	1.187939388	3.11691113
216.4048866	1.193731072	3.125079499
216.7832168	1.199602533	3.133305321
217.1628722	1.205555174	3.141587859
217.5438596	1.211591377	3.149929152
217.9261863	1.217713872	3.158329792
218.3098592	1.22392376	3.166790389
218.6948854	1.230223388	3.175313148
219.0812721	1.236614537	3.183899576
219.4690265	1.243099604	3.192551899
219.858156	1.24968053	3.201274969
220.2486679	1.256359645	3.21007127
220.6405694	1.263139244	3.218949945
221.0338681	1.270022308	3.227916923
221.4285714	1.277014653	3.236984001
221.8246869	1.284123219	3.246164728
222.2222222	1.291359307	3.255476595
222.6211849	1.298740434	3.264939159
223.0215827	1.306291184	3.274574271
223.4234234	1.31404721	3.28440635
223.8267148	1.322058337	3.294455228
224.2314647	1.330387465	3.304735361
224.6376812	1.339113456	3.315246725
225.0453721	1.348329959	3.325973343
225.4545455	1.35814	3.336870279
225.8652095	1.368648831	3.347860604
226.2773723	1.37995451	3.358829923
226.691042	1.392134997	3.369626515
227.1062271	1.405233975	3.380063095
227.5229358	1.419247528	3.389928398
227.9411765	1.434116511	3.398999289
228.3609576	1.449715704	3.407058353
228.7822878	1.465862068	3.413916022
229.2051756	1.482316056	3.419425959
229.6296296	1.498804067	3.42350619
230.0556586	1.515028269	3.426143992
230.4832714	1.530696263	3.427401063
230.9124767	1.545540706	3.427412154
231.3432836	1.559336079	3.426368487
231.7757009	1.571917154	3.424506175
232.2097378	1.583180993	3.422085045
232.6454034	1.593092244	3.419365716
233.0827068	1.601673957	3.416597352
233.5216573	1.609001298	3.413999733
233.9622642	1.615185198	3.411754273
234.4045369	1.62035764	3.410000276
234.8484848	1.624662953	3.408836269
235.2941176	1.628239788	3.408321699
235.7414449	1.631219766	3.408486163
236.1904762	1.633718877	3.409335033
236.6412214	1.635834518	3.410855401
237.0936902	1.637648152	3.413025559
237.5478927	1.63922274	3.41581706
238.0038388	1.640612197	3.419202302
238.4615385	1.641852226	3.423152163
238.9210019	1.642974906	3.427642126
239.3822394	1.644003858	3.432650096
239.8452611	1.644955604	3.43815662
240.3100775	1.645845556	3.444147586
240.776699	1.646684124	3.450610179
241.2451362	1.647482465	3.457536041
241.7153996	1.648248044	3.464918414
242.1875	1.648988519	3.472753106
242.6614481	1.649710449	3.481038145
243.1372549	1.650420702	3.489773846
243.6149312	1.651125778	3.498961179
244.0944882	1.651830986	3.508603512
244.5759369	1.652544776	3.518706472
245.0592885	1.653273061	3.529274829
245.5445545	1.654024949	3.540318423
246.031746	1.654808477	3.551843056
246.5208748	1.655633151	3.563860145
247.0119522	1.656508947	3.576379718
247.50499	1.657450213	3.589410984
248	1.658467724	3.602970329
248.496994	1.659575996	3.617065452
248.9959839	1.660791366	3.631711437
249.4969819	1.662130969	3.646917789
250	1.663613186	3.662702395
250.5050505	1.665257522	3.679073608
251.0121457	1.667086683	3.696043561
251.5212982	1.669120399	3.713626652
252.0325203	1.671386169	3.731833561
252.5458248	1.673906663	3.750675075
253.0612245	1.676710006	3.770160002
253.5787321	1.679824333	3.790298114
254.0983607	1.683277136	3.811098518
254.6201232	1.687101041	3.832568319
255.1440329	1.691327348	3.85471506
255.6701031	1.695986215	3.87754036
256.1983471	1.701113609	3.901053385
256.7287785	1.706743525	3.925255846
257.2614108	1.712910357	3.950148338
257.7962578	1.719651069	3.975733869
258.3333333	1.727001469	4.002008755
258.8726514	1.734999414	4.028975424
259.4142259	1.743682332	4.056627673
259.9580713	1.753090376	4.084963386
260.5042017	1.763260698	4.113974756
261.0526316	1.774232563	4.143659154
261.6033755	1.786045469	4.174006279
262.1564482	1.798739354	4.205011684
262.7118644	1.81235379	4.236664521
263.2696391	1.826926936	4.268955614
263.8297872	1.842499456	4.301879153
264.3923241	1.859111144	4.335426651
264.957265	1.876800198	4.369591398
265.5246253	1.895608959	4.404370934
266.0944206	1.915576182	4.439765997
266.6666667	1.936751207	4.475786549
267.2413793	1.959181393	4.512440773
267.8185745	1.982927875	4.549751967
268.3982684	2.008064763	4.587750439
268.9804772	2.034685334	4.626472134
269.5652174	2.062912584	4.665956315
270.1525054	2.092903288	4.706239919
270.7423581	2.1248546	4.747338946
271.3347921	2.159013419	4.789243045
271.9298246	2.195667356	4.831886292
272.5274725	2.235131708	4.87511987
273.1277533	2.277739012	4.91870664
273.7306843	2.323784263	4.962285089
274.3362832	2.373493525	5.005381256
274.9445676	2.426966027	5.047427473
275.5555556	2.484130845	5.087803657
276.169265	2.544707504	5.12590346
276.7857143	2.608227751	5.16122873
277.4049217	2.674054023	5.193464635
278.0269058	2.741470683	5.222561776
278.6516854	2.80980369	5.248765262
279.2792793	2.878537208	5.272592954
279.9097065	2.947447938	5.294765278
280.5429864	3.016673099	5.316071537
281.1791383	3.086750709	5.337206192
281.8181818	3.158553027	5.358604037
282.4601367	3.233178796	5.380302513
283.1050228	3.31177974	5.401865886
283.7528604	3.395358605	5.422386011
284.4036697	3.484619026	5.440556015
285.0574713	3.579820283	5.454807353
285.7142857	3.680718075	5.463474677
286.3741339	3.786573021	5.464965256
287.037037	3.896186224	5.45791417
287.7030162	4.00802545	5.441296537
288.372093	4.120311525	5.41451171
289.044289	4.231176941	5.37741279
289.7196262	4.338779121	5.330310522
290.3981265	4.441422825	5.273934936
291.0798122	4.537668426	5.20936366
291.7647059	4.626391621	5.137936203
292.4528302	4.706838066	5.061141825
293.144208	4.77861506	4.980520444
293.8388626	4.841673985	4.897559206
294.5368171	4.896256691	4.813619156
295.2380952	4.942828535	4.729882866
295.9427208	4.98200859	4.647326391
296.6507177	5.014504882	4.566731021
297.3621103	5.041065922	4.488672703
298.0769231	5.062436073	4.413567831
298.7951807	5.079331877	4.341685193
299.5169082	5.092425208	4.273176161
300.2421308	5.102332035	4.208096386
300.9708738	5.109608791	4.146426051
301.703163	5.114749284	4.088085034
302.4390244	5.118185636	4.032955517
303.1784841	5.120291773	3.98088154
303.9215686	5.121385234	3.93169896
304.6683047	5.121732002	3.885221834
305.4187192	5.121555077	3.841272759
306.1728395	5.121036282	3.799671381
306.9306931	5.120324633	3.76024791
307.6923077	5.119543854	3.72283753
308.4577114	5.118791692	3.687290114
309.2269327	5.118148713	3.653463596
310	5.117680325	3.621226576
310.7769424	5.117439459	3.590457717
311.5577889	5.117467888	3.56104726
312.3425693	5.117799462	3.532888526
313.1313131	5.118458513	3.505887555
313.9240506	5.119467102	3.479955949
314.7208122	5.120837581	3.455011943
315.5216285	5.122578776	3.430979936
316.3265306	5.124697566	3.407793294
317.1355499	5.12719392	3.385388825
317.9487179	5.130067488	3.363711109
318.7660668	5.133315879	3.342708769
319.5876289	5.136932257	3.32233698
320.4134367	5.140910885	3.302555788
321.2435233	5.145245916	3.283329947
322.0779221	5.149929663	3.264630995
322.9166667	5.15495377	3.246431636
323.7597911	5.160311714	3.2287129
324.6073298	5.165999843	3.211456737
325.4593176	5.172010632	3.194649272
326.3157895	5.178342803	3.178283213
327.176781	5.184993016	3.162352379
328.042328	5.191964192	3.14685433
328.9124668	5.199256998	3.131790755
329.787234	5.206879957	3.1171652
330.6666667	5.214840374	3.102985679
331.5508021	5.223152205	3.08926188
332.4396783	5.231830805	3.076004481
333.3333333	5.240897527	3.063228181
334.2318059	5.250378418	3.050949612
335.1351351	5.260302628	3.039186361
336.0433604	5.270705327	3.027957173
336.9565217	5.281628465	3.017283421
337.8746594	5.293119363	3.00718516
338.7978142	5.30523013	2.997685229
339.7260274	5.318022553	2.98880643
340.6593407	5.331562881	2.980572555
341.5977961	5.345924637	2.973008615
342.5414365	5.361191449	2.966142909
343.4903047	5.377455626	2.9600049
344.4444444	5.394818562	2.954633194
345.4038997	5.413401816	2.950071054
346.3687151	5.433342502	2.946374169
347.3389356	5.454807074	2.943610064
348.3146067	5.478004161	2.941861585
349.2957746	5.503198127	2.941222472
350.2824859	5.530728832	2.941792211
351.2747875	5.561038443	2.943662441
352.2727273	5.594701138	2.946886633
353.2763533	5.632445209	2.951440162
354.2857143	5.675181086	2.957154097
355.3008596	5.723998388	2.963620681
356.3218391	5.780140239	2.970079322
357.3487032	5.844906918	2.975284336
358.3815029	5.919496324	2.977380851
359.4202899	6.00474772	2.973843504
360.4651163	6.100813114	2.961519991
361.516035	6.206834747	2.936843132
362.5730994	6.320678651	2.896221436
363.6363636	6.438874555	2.836564037
364.7058824	6.556788516	2.755838465
365.7817109	6.669054383	2.653544113
366.8639053	6.770213632	2.53094303
367.9525223	6.855395715	2.391016607
369.047619	6.920929402	2.238098252
370.1492537	6.9647243	2.077326306
371.257485	6.986383049	1.913979652
372.3723724	6.987029503	1.752889407
373.4939759	6.968933507	1.597971912
374.6223565	6.93503561	1.452043013
375.7575758	6.888486317	1.316808161
376.899696	6.832286883	1.193010501
378.0487805	6.769077503	1.080698957
379.204893	6.701038129	0.979454955
380.3680982	6.629907233	0.888611227
381.5384615	6.557041054	0.807395433
382.7160494	6.483491839	0.735014575
383.9009288	6.410080115	0.67069895
385.0931677	6.337455302	0.613717938
386.2928349	6.266126976	0.563380221
387.5	6.196503721	0.519035999
388.7147335	6.128901605	0.480067586
389.9371069	6.063558278	0.445891237
391.1671924	6.000649104	0.415956334
392.4050633	5.940286112	0.389742338
393.6507937	5.882526162	0.366761565
394.9044586	5.827379786	0.346561932
396.1661342	5.774812633	0.32872625
397.4358974	5.724753406	0.312876271
398.7138264	5.677096602	0.298673445
400	5.631714983	0.285821016
401.2944984	5.588462315	0.27406394
402.5974026	5.547181105	0.263188541
403.9087948	5.507709092	0.253020626
405.2287582	5.469885212	0.243421927
406.557377	5.433555978	0.234287363
407.8947368	5.398579245	0.225539062
409.2409241	5.36482264	0.217121996
410.5960265	5.3321722	0.208998502
411.9601329	5.300528177	0.201144106
413.3333333	5.269803507	0.193543269
414.7157191	5.239923213	0.186186125
416.1073826	5.21082573	0.179066438
417.5084175	5.182455593	0.172180057
418.9189189	5.154767507	0.165523566
420.3389831	5.127721809	0.159094142
421.7687075	5.101281698	0.152888734
423.2081911	5.075418294	0.146904246
424.6575342	5.050104934	0.141137661
426.1168385	5.025315244	0.135585026
427.5862069	5.001029215	0.13024289
429.0657439	4.977227327	0.125107406
430.5555556	4.953890572	0.120174031
432.0557491	4.931003563	0.115438874
433.5664336	4.908552564	0.11089756
435.0877193	4.886523507	0.106545686
436.6197183	4.864901984	0.102378291
438.1625442	4.843678437	0.098391079
439.7163121	4.822842028	0.094579233
441.2811388	4.80238271	0.090937879
442.8571429	4.782291257	0.087462375
444.4444444	4.762557174	0.084147704
446.0431655	4.743175014	0.080989
447.6534296	4.724134958	0.07798143
449.2753623	4.705431225	0.075120012
450.9090909	4.687055764	0.072399811
452.5547445	4.669001421	0.069815989
454.2124542	4.651265188	0.067363542
455.8823529	4.63383857	0.065037624
457.5645756	4.616716153	0.062833417
459.2592593	4.599892399	0.060746073
460.9665428	4.583361649	0.058770804
462.6865672	4.567117027	0.056902866
464.4194757	4.551154815	0.055137533
466.1654135	4.535469001	0.05347017
467.9245283	4.52005456	0.051896254
469.6969697	4.504907467	0.050411158
471.4828897	4.490021384	0.049010502
473.2824427	4.475393204	0.047689921
475.0957854	4.461015259	0.046445055
476.9230769	4.446886499	0.045271754
478.7644788	4.432999055	0.044165868
480.620155	4.419350589	0.043123383
482.4902724	4.405935293	0.04214036
484.375	4.3927484	0.04121298
486.2745098	4.379783912	0.040337527
488.1889764	4.367039165	0.039510385
490.1185771	4.354509141	0.038728051
492.0634921	4.342188737	0.037987156
494.0239044	4.330075072	0.037284423
496	4.318162895	0.036616775
497.9919679	4.306449192	0.035981151
500	4.2949274	0.035374754
502.0242915	4.283594365	0.034794833
504.0650407	4.272445704	0.034238773
506.122449	4.261476971	0.03370416
508.1967213	4.250684826	0.033188687
510.2880658	4.240062341	0.032690239
512.3966942	4.229607225	0.032206797
514.5228216	4.219314779	0.031736516
516.6666667	4.20918024	0.031277729
518.8284519	4.199199974	0.030828884
521.0084034	4.189371488	0.030388604
523.2067511	4.17968747	0.029955697
525.4237288	4.170146516	0.029529034
527.6595745	4.160744796	0.029107709
529.9145299	4.151477227	0.028690932
532.1888412	4.142341083	0.028278043
534.4827586	4.133332391	0.027868482
536.7965368	4.124448345	0.027461806
539.1304348	4.115684891	0.027057696
541.4847162	4.107040362	0.026655862
543.8596491	4.09850941	0.026256143
546.2555066	4.090092744	0.025858399
548.6725664	4.081784946	0.025462561
551.1111111	4.073586679	0.025068559
553.5714286	4.065496147	0.024676385
556.0538117	4.057507833	0.024286053
558.5585586	4.04962234	0.023897574
561.0859729	4.041835322	0.02351099
563.6363636	4.034144869	0.023126339
566.2100457	4.026550294	0.02274365
568.8073394	4.019047164	0.022363
571.4285714	4.01163599	0.021984385
574.0740741	4.004312288	0.021607905
576.744186	3.99707654	0.021233556
579.4392523	3.989926716	0.020861411
582.1596244	3.982860769	0.020491515
584.9056604	3.975875372	0.020123895
587.6777251	3.96897221	0.019758604
590.4761905	3.962147927	0.019395692
593.3014354	3.955401666	0.019035184
596.1538462	3.948730028	0.018677132
599.0338164	3.94213466	0.018321558
601.9417476	3.935613404	0.01796852
604.8780488	3.929162811	0.017618053
607.8431373	3.922784503	0.017270194
610.8374384	3.91647628	0.016924972
613.8613861	3.910237202	0.016582421
616.9154229	3.904065038	0.016242583
620	3.897960106	0.015905499
623.1155779	3.891920151	0.015571208
626.2626263	3.885945477	0.015239715
629.4416244	3.880033807	0.014911081
632.6530612	3.874185428	0.014585324
635.8974359	3.868398043	0.014262493
639.1752577	3.862671924	0.013942603
642.4870466	3.857004752	0.01362569
645.8333333	3.851396786	0.013311794
649.2146597	3.845846984	0.013000935
652.6315789	3.840354296	0.012693143
656.0846561	3.834918966	0.01238845
659.5744681	3.829537321	0.012086892
663.1016043	3.824212202	0.011788485
666.6666667	3.818939918	0.011493272
670.2702703	3.813721997	0.011201267
673.9130435	3.808557349	0.010912502
677.5956284	3.803444877	0.010627007
681.3186813	3.798383474	0.010344802
685.0828729	3.793373343	0.010065925
688.8888889	3.788413369	0.009790393
692.7374302	3.783503746	0.009518228
696.6292135	3.778642025	0.00924947
700.5649718	3.77382839	0.008984131
704.5454545	3.76906435	0.00872224
708.5714286	3.76434611	0.008463823
712.6436782	3.75967517	0.008208901
716.7630058	3.755049044	0.007957505
720.9302326	3.750470562	0.007709646
725.1461988	3.745935895	0.007465356
729.4117647	3.741445201	0.007224656
733.7278107	3.736999977	0.006987566
738.0952381	3.732597704	0.006754114
742.5149701	3.728238534	0.006524314
746.9879518	3.723922618	0.006298193
751.5151515	3.719647418	0.006075773
756.097561	3.715414419	0.005857072
760.7361963	3.711223765	0.005642112
765.4320988	3.707071552	0.005430915
770.1863354	3.702961961	0.005223497
775	3.698891077	0.005019882
779.8742138	3.694860381	0.004820087
784.8101266	3.690867294	0.004624135
789.8089172	3.686914651	0.00443204
794.8717949	3.682999866	0.004243827
800	3.679123059	0.004059509
805.1948052	3.675284349	0.003879108
810.4575163	3.671482495	0.003702642
815.7894737	3.667717609	0.003530127
821.192053	3.663989806	0.00336158
826.6666667	3.660297832	0.003197024
832.2147651	3.656643163	0.003036471
837.8378378	3.653023172	0.002879939
843.537415	3.649439332	0.002727445
849.3150685	3.645890378	0.002579007
855.1724138	3.642376412	0.002434637
861.1111111	3.638897534	0.002294357
867.1328671	3.635452469	0.00215818
873.2394366	3.632041314	0.002026122
879.4326241	3.628664162	0.001898199
885.7142857	3.62532111	0.001774425
892.0863309	3.62201225	0.001654814
898.5507246	3.618734913	0.001539385
905.1094891	3.61549195	0.001428149
911.7647059	3.612280685	0.00132112
918.5185185	3.609102587	0.001218315
925.3731343	3.605956358	0.001119748
932.3308271	3.602843468	0.00102543
939.3939394	3.599761225	0.000935378
946.5648855	3.596712488	0.000849602
953.8461538	3.593693169	0.000768116
961.2403101	3.590707518	0.000690934
968.75	3.587751438	0.000618067
976.3779528	3.584827793	0.000549526
984.1269841	3.581935264	0.00048532
992	3.579073928	0.000425458
1000	3.576243859	0.000369945
1008.130081	3.573443731	0.00031878
1016.393443	3.570675017	0.000271954
1024.793388	3.567936386	0.000229449
1033.333333	3.565229311	0.000191229
1042.016807	3.562552459	0.000157236
1050.847458	3.559907304	0.00012738
1059.82906	3.557292511	0.000101533
1068.965517	3.554708146	7.95208E-05
1078.26087	3.552155684	6.11155E-05
1087.719298	3.549635193	4.60359E-05
1097.345133	3.547143922	3.39528E-05
1107.142857	3.544684753	2.44986E-05
1117.117117	3.542256343	1.72851E-05
1127.272727	3.539857342	1.19224E-05
1137.614679	3.537490636	8.03995E-06
1148.148148	3.535153462	5.30239E-06
1158.878505	3.532844463	3.42156E-06
1169.811321	3.530566527	2.16123E-06
1180.952381	3.528316879	1.33712E-06
1192.307692	3.526096992	8.10163E-07
1203.883495	3.523904085	4.80548E-07
1215.686275	3.521739627	2.79571E-07
1227.722772	3.51960225	1.6049E-07
1240	3.517492004	0
1252.525253	3.515408938	0
1265.306122	3.513353099	0
1278.350515	3.511323112	0
1291.666667	3.509320447	0
1305.263158	3.507342299	0
1319.148936	3.505390135	0
1333.333333	3.503464	0
1347.826087	3.501563936	0
1362.637363	3.499688558	0
1377.777778	3.497836474	0
1393.258427	3.496010584	0
1409.090909	3.494209496	0
1425.287356	3.492431818	0
1441.860465	3.490679017	0
1458.823529	3.488951132	0
1476.190476	3.487246765	0
1493.975904	3.485564517	0
1512.195122	3.483907289	0
1530.864198	3.482273683	0
1550	3.48066373	0
1569.620253	3.479076027	0
1589.74359	3.477510604	0
1610.38961	3.475970368	0
1631.578947	3.474451036	0
1653.333333	3.472955514	0
1675.675676	3.471482392	0
1698.630137	3.470030259	0
1722.222222	3.468602024	0
1746.478873	3.467194832	0
1771.428571	3.465811593	0
1797.101449	3.464448008	0
1823.529412	3.463106987	0
1850.746269	3.461788555	0
1878.787879	3.460491295	0
1907.692308	3.459215229	0
1937.5	3.457961827	0
1968.253968	3.456728222	0
2000	3.45551588	0
2032.786885	3.454326273	0
2066.666667	3.453156527	0
2101.694915	3.452008111	0
2137.931034	3.450879598	0
2175.438596	3.449772456	0
2214.285714	3.448686707	0
2254.545455	3.447620919	0
2296.296296	3.446576562	0
2339.622642	3.445552205	0
2384.615385	3.444547866	0
2431.372549	3.443563561	0
2480	3.442600761	0
2530.612245	3.441656578	0
2583.333333	3.440733933	0
2638.297872	3.439829938	0
2695.652174	3.438947513	0
2755.555556	3.438083769	0
2818.181818	3.437240172	0
2883.72093	3.436416738	0
2952.380952	3.435612027	0
3024.390244	3.434827507	0
3100	3.434063191	0
3179.487179	3.433317638	0
3263.157895	3.432592315	0
3351.351351	3.431885779	0
3444.444444	3.431199499	0
3542.857143	3.430532029	0
3647.058824	3.429884838	0
3757.575758	3.429255021	0
3875	3.428645505	0
4000	3.428056301	0
4133.333333	3.4274845	0
4275.862069	3.426933031	0
4428.571429	3.426398984	0
4592.592593	3.425885287	0
4769.230769	3.425390489	0
4960	3.424914597	0
5166.666667	3.424457621	0
5391.304348	3.424019568	0
5636.363636	3.423598984	0
5904.761905	3.423198796	0
6200	3.422817553	0