nm	n	k
190	1.23449574	1.39478794
191	1.30324926	1.43102854
192	1.37822449	1.46238479
193	1.45924688	1.48755142
194	1.54582978	1.50509631
195	1.63708878	1.51353988
196	1.73167509	1.51148155
197	1.82775468	1.4977708
198	1.92306171	1.47170355
199	2.01504528	1.43320552
200	2.10110428	1.38295099
201	2.17887309	1.32236974
202	2.24649378	1.25352248
203	2.30280694	1.17886639
204	2.34741754	1.10096852
205	2.38063361	1.02223702
206	2.40331275	0.944724024
207	2.41666826	0.870022629
208	2.42208218	0.799250343
209	2.42095484	0.733093723
210	2.41460156	0.671885474
211	2.40419358	0.615690495
212	2.39073355	0.564385851
213	2.37505426	0.51772738
214	2.35783126	0.475401003
215	2.33960204	0.437059876
216	2.32078727	0.402349813
217	2.30171125	0.370925706
218	2.28262034	0.342461357
219	2.26369877	0.316654738
220	2.24508179	0.293230172
221	2.22686639	0.271938549
222	2.20911992	0.252556338
223	2.19188691	0.23488393
224	2.17519453	0.21874365
225	2.1590567	0.203977664
226	2.14347751	0.190445923
227	2.12845365	0.178024204
228	2.11397648	0.166602311
229	2.10003349	0.156082437
230	2.08660949	0.146377702
231	2.07368754	0.137410844
232	2.06124954	0.129113072
233	2.04927684	0.121423048
234	2.03775057	0.114286002
235	2.02665195	0.107652952
236	2.01596247	0.101480018
237	2.00566409	0.095727831
238	1.9957393	0.09036101
239	1.9861712	0.085347705
240	1.97694358	0.080659196
241	1.96804089	0.076269546
242	1.95944828	0.072155292
243	1.95115159	0.068295175
244	1.94313735	0.064669904
245	1.93539275	0.061261944
246	1.9279056	0.058055338
247	1.92066436	0.055035536
248	1.91365806	0.052189258
249	1.90687631	0.049504362
250	1.90030926	0.046969733
251	1.89394755	0.044575184
252	1.88778232	0.042311361
253	1.88180519	0.04016967
254	1.87600818	0.0381422
255	1.87038374	0.036221665
256	1.86492471	0.034401342
257	1.85962429	0.032675022
258	1.85447604	0.031036967
259	1.84947383	0.029481862
260	1.84461184	0.028004785
261	1.83988455	0.02660117
262	1.83528671	0.025266777
263	1.83081332	0.023997665
264	1.82645965	0.022790167
265	1.82222117	0.021640869
266	1.81809359	0.020546588
267	1.8140728	0.019504356
268	1.81015492	0.0185114
269	1.80633622	0.017565127
270	1.80261316	0.016663115
271	1.79898236	0.015803094
272	1.79544059	0.014982938
273	1.79198477	0.014200653
274	1.78861197	0.013454369
275	1.78531938	0.012742328
276	1.78210431	0.012062881
277	1.77896419	0.011414473
278	1.77589657	0.010795645
279	1.77289909	0.010205019
280	1.76996952	0.009641298
281	1.7671057	0.00910326
282	1.76430556	0.00858975
283	1.76156712	0.008099679
284	1.7588885	0.007632016
285	1.75626788	0.007185788
286	1.7537035	0.006760075
287	1.75119371	0.006354004
288	1.7487369	0.00596675
289	1.74633151	0.005597531
290	1.74397608	0.005245605
291	1.74166918	0.004910269
292	1.73940945	0.004590855
293	1.73719557	0.004286728
294	1.73502627	0.003997286
295	1.73290035	0.003721956
296	1.73081663	0.003460194
297	1.72877399	0.003211481
298	1.72677135	0.002975324
299	1.72480767	0.002751254
300	1.72288194	0.002538821
301	1.7209932	0.0023376
302	1.71914052	0.002147183
303	1.71732301	0.001967182
304	1.7155398	0.001797226
305	1.71379006	0.001636962
306	1.712073	0.001486051
307	1.71038784	0.001344169
308	1.70873384	0.001211008
309	1.7071103	0.001086273
310	1.70551652	0.00096968
311	1.70395184	0.000860958
312	1.70241564	0.00075985
313	1.7009073	0.000666105
314	1.69942623	0.000579487
315	1.69797188	0.000499768
316	1.69654371	0.000426727
317	1.6951412	0.000360157
318	1.69376388	0.000299855
319	1.69241127	0.000245627
320	1.69108294	0.00019729
321	1.68977848	0.000154664
322	1.6884975	0.000117577
323	1.68723968	8.59E-05
324	1.68600468	5.94E-05
325	1.68479226	3.79E-05
326	1.68360222	2.14E-05
327	1.68243445	9.69E-06
328	1.68128903	2.60E-06
329	1.68016645	1.57E-08
330	1.67906821	0
331	1.67799208	0
332	1.6769364	0
333	1.67590012	0
334	1.67488244	0
335	1.67388266	0
336	1.67290016	0
337	1.67193437	0
338	1.67098478	0
339	1.67005092	0
340	1.66913232	0
341	1.66822856	0
342	1.66733925	0
343	1.66646399	0
344	1.66560244	0
345	1.66475423	0
346	1.66391904	0
347	1.66309654	0
348	1.66228644	0
349	1.66148844	0
350	1.66070226	0
351	1.65992762	0
352	1.65916425	0
353	1.65841192	0
354	1.65767037	0
355	1.65693936	0
356	1.65621867	0
357	1.65550808	0
358	1.65480736	0
359	1.65411632	0
360	1.65343475	0
361	1.65276245	0
362	1.65209924	0
363	1.65144492	0
364	1.65079933	0
365	1.65016229	0
366	1.64953362	0
367	1.64891318	0
368	1.64830078	0
369	1.64769629	0
370	1.64709954	0
371	1.6465104	0
372	1.64592871	0
373	1.64535435	0
374	1.64478716	0
375	1.64422703	0
376	1.64367382	0
377	1.6431274	0
378	1.64258766	0
379	1.64205448	0
380	1.64152773	0
381	1.6410073	0
382	1.64049308	0
383	1.63998497	0
384	1.63948286	0
385	1.63898664	0
386	1.63849622	0
387	1.63801149	0
388	1.63753236	0
389	1.63705874	0
390	1.63659053	0
391	1.63612764	0
392	1.63566998	0
393	1.63521748	0
394	1.63477004	0
395	1.63432759	0
396	1.63389003	0
397	1.63345731	0
398	1.63302932	0
399	1.63260601	0
400	1.6321873	0
401	1.63177312	0
402	1.63136339	0
403	1.63095804	0
404	1.63055702	0
405	1.63016025	0
406	1.62976766	0
407	1.6293792	0
408	1.6289948	0
409	1.6286144	0
410	1.62823794	0
411	1.62786536	0
412	1.62749661	0
413	1.62713162	0
414	1.62677035	0
415	1.62641273	0
416	1.62605872	0
417	1.62570827	0
418	1.62536131	0
419	1.62501781	0
420	1.62467771	0
421	1.62434096	0
422	1.62400753	0
423	1.62367735	0
424	1.62335038	0
425	1.62302659	0
426	1.62270592	0
427	1.62238834	0
428	1.6220738	0
429	1.62176225	0
430	1.62145367	0
431	1.621148	0
432	1.62084521	0
433	1.62054526	0
434	1.62024812	0
435	1.61995374	0
436	1.61966208	0
437	1.61937312	0
438	1.61908682	0
439	1.61880314	0
440	1.61852204	0
441	1.6182435	0
442	1.61796748	0
443	1.61769395	0
444	1.61742288	0
445	1.61715423	0
446	1.61688798	0
447	1.61662409	0
448	1.61636253	0
449	1.61610328	0
450	1.61584631	0
451	1.61559158	0
452	1.61533907	0
453	1.61508876	0
454	1.61484061	0
455	1.6145946	0
456	1.6143507	0
457	1.61410889	0
458	1.61386914	0
459	1.61363143	0
460	1.61339573	0
461	1.61316202	0
462	1.61293027	0
463	1.61270046	0
464	1.61247257	0
465	1.61224657	0
466	1.61202245	0
467	1.61180018	0
468	1.61157974	0
469	1.6113611	0
470	1.61114425	0
471	1.61092917	0
472	1.61071583	0
473	1.61050422	0
474	1.61029432	0
475	1.6100861	0
476	1.60987955	0
477	1.60967465	0
478	1.60947137	0
479	1.60926971	0
480	1.60906964	0
481	1.60887115	0
482	1.60867422	0
483	1.60847882	0
484	1.60828495	0
485	1.60809259	0
486	1.60790172	0
487	1.60771232	0
488	1.60752438	0
489	1.60733788	0
490	1.60715281	0
491	1.60696915	0
492	1.60678689	0
493	1.606606	0
494	1.60642649	0
495	1.60624832	0
496	1.60607149	0
497	1.60589599	0
498	1.60572179	0
499	1.60554889	0
500	1.60537727	0
501	1.60520692	0
502	1.60503783	0
503	1.60486997	0
504	1.60470335	0
505	1.60453794	0
506	1.60437374	0
507	1.60421073	0
508	1.60404889	0
509	1.60388823	0
510	1.60372872	0
511	1.60357035	0
512	1.60341312	0
513	1.603257	0
514	1.603102	0
515	1.6029481	0
516	1.60279528	0
517	1.60264354	0
518	1.60249286	0
519	1.60234324	0
520	1.60219467	0
521	1.60204713	0
522	1.60190061	0
523	1.60175511	0
524	1.60161061	0
525	1.60146711	0
526	1.60132459	0
527	1.60118305	0
528	1.60104248	0
529	1.60090286	0
530	1.60076419	0
531	1.60062646	0
532	1.60048965	0
533	1.60035377	0
534	1.6002188	0
535	1.60008474	0
536	1.59995157	0
537	1.59981928	0
538	1.59968788	0
539	1.59955734	0
540	1.59942767	0
541	1.59929885	0
542	1.59917087	0
543	1.59904374	0
544	1.59891743	0
545	1.59879195	0
546	1.59866728	0
547	1.59854342	0
548	1.59842036	0
549	1.5982981	0
550	1.59817662	0
551	1.59805591	0
552	1.59793598	0
553	1.59781682	0
554	1.59769841	0
555	1.59758075	0
556	1.59746384	0
557	1.59734767	0
558	1.59723222	0
559	1.59711751	0
560	1.59700351	0
561	1.59689022	0
562	1.59677763	0
563	1.59666575	0
564	1.59655456	0
565	1.59644406	0
566	1.59633424	0
567	1.59622509	0
568	1.59611661	0
569	1.5960088	0
570	1.59590165	0
571	1.59579514	0
572	1.59568929	0
573	1.59558407	0
574	1.5954795	0
575	1.59537555	0
576	1.59527222	0
577	1.59516952	0
578	1.59506743	0
579	1.59496595	0
580	1.59486507	0
581	1.5947648	0
582	1.59466511	0
583	1.59456602	0
584	1.59446751	0
585	1.59436958	0
586	1.59427222	0
587	1.59417543	0
588	1.59407921	0
589	1.59398355	0
590	1.59388844	0
591	1.59379389	0
592	1.59369988	0
593	1.59360641	0
594	1.59351348	0
595	1.59342109	0
596	1.59332922	0
597	1.59323788	0
598	1.59314706	0
599	1.59305676	0
600	1.59296696	0
601	1.59287768	0
602	1.5927889	0
603	1.59270062	0
604	1.59261283	0
605	1.59252554	0
606	1.59243874	0
607	1.59235242	0
608	1.59226658	0
609	1.59218122	0
610	1.59209633	0
611	1.59201191	0
612	1.59192795	0
613	1.59184446	0
614	1.59176142	0
615	1.59167884	0
616	1.59159671	0
617	1.59151503	0
618	1.5914338	0
619	1.591353	0
620	1.59127264	0
621	1.59119272	0
622	1.59111322	0
623	1.59103416	0
624	1.59095552	0
625	1.5908773	0
626	1.59079949	0
627	1.5907221	0
628	1.59064513	0
629	1.59056856	0
630	1.59049239	0
631	1.59041663	0
632	1.59034127	0
633	1.59026631	0
634	1.59019173	0
635	1.59011755	0
636	1.59004376	0
637	1.58997035	0
638	1.58989732	0
639	1.58982467	0
640	1.5897524	0
641	1.5896805	0
642	1.58960897	0
643	1.58953781	0
644	1.58946701	0
645	1.58939658	0
646	1.58932651	0
647	1.58925679	0
648	1.58918743	0
649	1.58911842	0
650	1.58904976	0
651	1.58898145	0
652	1.58891348	0
653	1.58884585	0
654	1.58877857	0
655	1.58871162	0
656	1.588645	0
657	1.58857872	0
658	1.58851277	0
659	1.58844715	0
660	1.58838185	0
661	1.58831687	0
662	1.58825222	0
663	1.58818788	0
664	1.58812386	0
665	1.58806015	0
666	1.58799676	0
667	1.58793367	0
668	1.5878709	0
669	1.58780842	0
670	1.58774626	0
671	1.58768439	0
672	1.58762282	0
673	1.58756155	0
674	1.58750057	0
675	1.58743989	0
676	1.5873795	0
677	1.58731939	0
678	1.58725957	0
679	1.58720004	0
680	1.58714079	0
681	1.58708183	0
682	1.58702314	0
683	1.58696473	0
684	1.58690659	0
685	1.58684873	0
686	1.58679114	0
687	1.58673381	0
688	1.58667676	0
689	1.58661997	0
690	1.58656345	0
691	1.58650719	0
692	1.58645119	0
693	1.58639545	0
694	1.58633997	0
695	1.58628474	0
696	1.58622977	0
697	1.58617505	0
698	1.58612058	0
699	1.58606636	0
700	1.58601239	0
701	1.58595866	0
702	1.58590518	0
703	1.58585194	0
704	1.58579894	0
705	1.58574618	0
706	1.58569365	0
707	1.58564137	0
708	1.58558932	0
709	1.5855375	0
710	1.58548591	0
711	1.58543456	0
712	1.58538343	0
713	1.58533253	0
714	1.58528185	0
715	1.5852314	0
716	1.58518118	0
717	1.58513117	0
718	1.58508138	0
719	1.58503182	0
720	1.58498247	0
721	1.58493333	0
722	1.58488441	0
723	1.58483571	0
724	1.58478721	0
725	1.58473893	0
726	1.58469086	0
727	1.58464299	0
728	1.58459533	0
729	1.58454787	0
730	1.58450062	0
731	1.58445357	0
732	1.58440673	0
733	1.58436008	0
734	1.58431363	0
735	1.58426738	0
736	1.58422133	0
737	1.58417547	0
738	1.5841298	0
739	1.58408433	0
740	1.58403905	0
741	1.58399396	0
742	1.58394906	0
743	1.58390435	0
744	1.58385982	0
745	1.58381548	0
746	1.58377133	0
747	1.58372736	0
748	1.58368357	0
749	1.58363996	0
750	1.58359653	0
751	1.58355329	0
752	1.58351022	0
753	1.58346732	0
754	1.58342461	0
755	1.58338206	0
756	1.5833397	0
757	1.5832975	0
758	1.58325548	0
759	1.58321362	0
760	1.58317194	0
761	1.58313042	0
762	1.58308908	0
763	1.5830479	0
764	1.58300688	0
765	1.58296603	0
766	1.58292535	0
767	1.58288482	0
768	1.58284446	0
769	1.58280426	0
770	1.58276422	0
771	1.58272434	0
772	1.58268461	0
773	1.58264505	0
774	1.58260564	0
775	1.58256638	0
776	1.58252728	0
777	1.58248833	0
778	1.58244954	0
779	1.58241089	0
780	1.5823724	0
781	1.58233406	0
782	1.58229587	0
783	1.58225782	0
784	1.58221992	0
785	1.58218217	0
786	1.58214457	0
787	1.58210711	0
788	1.58206979	0
789	1.58203262	0
790	1.58199558	0
791	1.5819587	0
792	1.58192195	0
793	1.58188534	0
794	1.58184887	0
795	1.58181254	0
796	1.58177634	0
797	1.58174029	0
798	1.58170437	0
799	1.58166858	0
800	1.58163293	0
801	1.58159741	0
802	1.58156203	0
803	1.58152677	0
804	1.58149165	0
805	1.58145666	0
806	1.5814218	0
807	1.58138707	0
808	1.58135247	0
809	1.581318	0
810	1.58128365	0
811	1.58124943	0
812	1.58121534	0
813	1.58118137	0
814	1.58114752	0
815	1.5811138	0
816	1.5810802	0
817	1.58104672	0
818	1.58101337	0
819	1.58098014	0
820	1.58094702	0
821	1.58091403	0
822	1.58088116	0
823	1.5808484	0
824	1.58081576	0
825	1.58078324	0
826	1.58075083	0
827	1.58071855	0
828	1.58068637	0
829	1.58065431	0
830	1.58062237	0
831	1.58059053	0
832	1.58055882	0
833	1.58052721	0
834	1.58049571	0
835	1.58046433	0
836	1.58043305	0
837	1.58040189	0
838	1.58037083	0
839	1.58033989	0
840	1.58030905	0
841	1.58027831	0
842	1.58024769	0
843	1.58021717	0
844	1.58018676	0
845	1.58015645	0
846	1.58012625	0
847	1.58009615	0
848	1.58006615	0
849	1.58003626	0
850	1.58000647	0
851	1.57997678	0
852	1.57994719	0
853	1.57991771	0
854	1.57988832	0
855	1.57985903	0
856	1.57982984	0
857	1.57980076	0
858	1.57977177	0
859	1.57974287	0
860	1.57971408	0
861	1.57968538	0
862	1.57965677	0
863	1.57962827	0
864	1.57959985	0
865	1.57957154	0
866	1.57954331	0
867	1.57951518	0
868	1.57948715	0
869	1.5794592	0
870	1.57943135	0
871	1.57940359	0
872	1.57937592	0
873	1.57934835	0
874	1.57932086	0
875	1.57929346	0
876	1.57926615	0
877	1.57923893	0
878	1.5792118	0
879	1.57918476	0
880	1.57915781	0
881	1.57913094	0
882	1.57910416	0
883	1.57907746	0
884	1.57905085	0
885	1.57902433	0
886	1.57899789	0
887	1.57897154	0
888	1.57894527	0
889	1.57891908	0
890	1.57889298	0
891	1.57886696	0
892	1.57884103	0
893	1.57881517	0
894	1.5787894	0
895	1.5787637	0
896	1.57873809	0
897	1.57871256	0
898	1.57868711	0
899	1.57866174	0
900	1.57863645	0
901	1.57861124	0
902	1.5785861	0
903	1.57856104	0
904	1.57853606	0
905	1.57851116	0
906	1.57848634	0
907	1.57846159	0
908	1.57843692	0
909	1.57841232	0
910	1.5783878	0
911	1.57836336	0
912	1.57833898	0
913	1.57831469	0
914	1.57829047	0
915	1.57826632	0
916	1.57824224	0
917	1.57821824	0
918	1.57819431	0
919	1.57817045	0
920	1.57814666	0
921	1.57812295	0
922	1.5780993	0
923	1.57807573	0
924	1.57805223	0
925	1.57802879	0
926	1.57800543	0
927	1.57798214	0
928	1.57795891	0
929	1.57793576	0
930	1.57791267	0
931	1.57788965	0
932	1.5778667	0
933	1.57784382	0
934	1.577821	0
935	1.57779825	0
936	1.57777556	0
937	1.57775295	0
938	1.5777304	0
939	1.57770791	0
940	1.57768549	0
941	1.57766313	0
942	1.57764084	0
943	1.57761861	0
944	1.57759645	0
945	1.57757435	0
946	1.57755232	0
947	1.57753034	0
948	1.57750843	0
949	1.57748659	0
950	1.5774648	0
951	1.57744308	0
952	1.57742142	0
953	1.57739982	0
954	1.57737828	0
955	1.5773568	0
956	1.57733538	0
957	1.57731402	0
958	1.57729272	0
959	1.57727149	0
960	1.57725031	0
961	1.57722919	0
962	1.57720813	0
963	1.57718712	0
964	1.57716618	0
965	1.57714529	0
966	1.57712446	0
967	1.57710369	0
968	1.57708298	0
969	1.57706232	0
970	1.57704172	0
971	1.57702118	0
972	1.57700069	0
973	1.57698026	0
974	1.57695988	0
975	1.57693956	0
976	1.57691929	0
977	1.57689908	0
978	1.57687893	0
979	1.57685882	0
980	1.57683878	0
981	1.57681878	0
982	1.57679884	0
983	1.57677895	0
984	1.57675912	0
985	1.57673934	0
986	1.57671961	0
987	1.57669994	0
988	1.57668031	0
989	1.57666074	0
990	1.57664122	0
991	1.57662175	0
992	1.57660233	0
993	1.57658297	0
994	1.57656365	0
995	1.57654439	0
996	1.57652517	0
997	1.57650601	0
998	1.57648689	0
999	1.57646783	0
1000	1.57644881	0
1001	1.57642984	0
1002	1.57641093	0
1003	1.57639206	0
1004	1.57637324	0
1005	1.57635447	0
1006	1.57633574	0
1007	1.57631707	0
1008	1.57629844	0
1009	1.57627986	0
1010	1.57626132	0
1011	1.57624284	0
1012	1.5762244	0
1013	1.576206	0
1014	1.57618766	0
1015	1.57616936	0
1016	1.5761511	0
1017	1.57613289	0
1018	1.57611473	0
1019	1.57609661	0
1020	1.57607854	0
1021	1.57606051	0
1022	1.57604253	0
1023	1.57602459	0
1024	1.5760067	0
1025	1.57598885	0
1026	1.57597105	0
1027	1.57595328	0
1028	1.57593557	0
1029	1.57591789	0
1030	1.57590026	0
1031	1.57588267	0
1032	1.57586513	0
1033	1.57584763	0
1034	1.57583017	0
1035	1.57581275	0
1036	1.57579537	0
1037	1.57577804	0
1038	1.57576075	0
1039	1.5757435	0
1040	1.57572629	0
1041	1.57570912	0
1042	1.575692	0
1043	1.57567491	0
1044	1.57565787	0
1045	1.57564086	0
1046	1.5756239	0
1047	1.57560698	0
1048	1.57559009	0
1049	1.57557325	0
1050	1.57555644	0
1051	1.57553968	0
1052	1.57552295	0
1053	1.57550627	0
1054	1.57548962	0
1055	1.57547301	0
1056	1.57545644	0
1057	1.57543991	0
1058	1.57542342	0
1059	1.57540697	0
1060	1.57539055	0
1061	1.57537417	0
1062	1.57535783	0
1063	1.57534153	0
1064	1.57532526	0
1065	1.57530903	0
1066	1.57529284	0
1067	1.57527668	0
1068	1.57526057	0
1069	1.57524448	0
1070	1.57522844	0
1071	1.57521243	0
1072	1.57519646	0
1073	1.57518052	0
1074	1.57516462	0
1075	1.57514875	0
1076	1.57513292	0
1077	1.57511713	0
1078	1.57510137	0
1079	1.57508564	0
1080	1.57506995	0
1081	1.5750543	0
1082	1.57503868	0
1083	1.57502309	0
1084	1.57500754	0
1085	1.57499203	0
1086	1.57497654	0
1087	1.57496109	0
1088	1.57494568	0
1089	1.5749303	0
1090	1.57491495	0
1091	1.57489963	0
1092	1.57488435	0
1093	1.5748691	0
1094	1.57485389	0
1095	1.5748387	0
1096	1.57482355	0
1097	1.57480844	0
1098	1.57479335	0
1099	1.5747783	0
1100	1.57476328	0
1101	1.57474829	0
1102	1.57473333	0
1103	1.5747184	0
1104	1.57470351	0
1105	1.57468865	0
1106	1.57467382	0
1107	1.57465902	0
1108	1.57464425	0
1109	1.57462951	0
1110	1.5746148	0
1111	1.57460013	0
1112	1.57458548	0
1113	1.57457087	0
1114	1.57455628	0
1115	1.57454173	0
1116	1.5745272	0
1117	1.57451271	0
1118	1.57449824	0
1119	1.57448381	0
1120	1.5744694	0
1121	1.57445502	0
1122	1.57444068	0
1123	1.57442636	0
1124	1.57441207	0
1125	1.57439781	0
1126	1.57438358	0
1127	1.57436938	0
1128	1.5743552	0
1129	1.57434106	0
1130	1.57432694	0
1131	1.57431285	0
1132	1.57429879	0
1133	1.57428476	0
1134	1.57427076	0
1135	1.57425678	0
1136	1.57424283	0
1137	1.57422891	0
1138	1.57421502	0
1139	1.57420115	0
1140	1.57418731	0
1141	1.5741735	0
1142	1.57415972	0
1143	1.57414596	0
1144	1.57413223	0
1145	1.57411852	0
1146	1.57410484	0
1147	1.57409119	0
1148	1.57407757	0
1149	1.57406397	0
1150	1.5740504	0
1151	1.57403685	0
1152	1.57402333	0
1153	1.57400984	0
1154	1.57399637	0
1155	1.57398293	0
1156	1.57396951	0
1157	1.57395612	0
1158	1.57394275	0
1159	1.57392941	0
1160	1.57391609	0
1161	1.5739028	0
1162	1.57388954	0
1163	1.57387629	0
1164	1.57386308	0
1165	1.57384989	0
1166	1.57383672	0
1167	1.57382358	0
1168	1.57381046	0
1169	1.57379736	0
1170	1.57378429	0
1171	1.57377125	0
1172	1.57375823	0
1173	1.57374523	0
1174	1.57373225	0
1175	1.5737193	0
1176	1.57370638	0
1177	1.57369347	0
1178	1.57368059	0
1179	1.57366774	0
1180	1.5736549	0
1181	1.57364209	0
1182	1.57362931	0
1183	1.57361654	0
1184	1.5736038	0
1185	1.57359108	0
1186	1.57357839	0
1187	1.57356571	0
1188	1.57355306	0
1189	1.57354044	0
1190	1.57352783	0
1191	1.57351525	0
1192	1.57350268	0
1193	1.57349014	0
1194	1.57347763	0
1195	1.57346513	0
1196	1.57345266	0
1197	1.57344021	0
1198	1.57342778	0
1199	1.57341537	0
1200	1.57340298	0
1201	1.57339061	0
1202	1.57337827	0
1203	1.57336595	0
1204	1.57335364	0
1205	1.57334136	0
1206	1.5733291	0
1207	1.57331686	0
1208	1.57330465	0
1209	1.57329245	0
1210	1.57328027	0
1211	1.57326811	0
1212	1.57325598	0
1213	1.57324386	0
1214	1.57323177	0
1215	1.57321969	0
1216	1.57320764	0
1217	1.5731956	0
1218	1.57318359	0
1219	1.5731716	0
1220	1.57315962	0
1221	1.57314767	0
1222	1.57313573	0
1223	1.57312381	0
1224	1.57311192	0
1225	1.57310004	0
1226	1.57308819	0
1227	1.57307635	0
1228	1.57306453	0
1229	1.57305273	0
1230	1.57304095	0
1231	1.57302919	0
1232	1.57301745	0
1233	1.57300572	0
1234	1.57299402	0
1235	1.57298233	0
1236	1.57297067	0
1237	1.57295902	0
1238	1.57294739	0
1239	1.57293578	0
1240	1.57292418	0
1241	1.57291261	0
1242	1.57290105	0
1243	1.57288952	0
1244	1.572878	0
1245	1.57286649	0
1246	1.57285501	0
1247	1.57284354	0
1248	1.57283209	0
1249	1.57282066	0
1250	1.57280925	0
1251	1.57279786	0
1252	1.57278648	0
1253	1.57277512	0
1254	1.57276378	0
1255	1.57275245	0
1256	1.57274114	0
1257	1.57272985	0
1258	1.57271858	0
1259	1.57270732	0
1260	1.57269608	0
1261	1.57268486	0
1262	1.57267366	0
1263	1.57266247	0
1264	1.57265129	0
1265	1.57264014	0
1266	1.572629	0
1267	1.57261788	0
1268	1.57260677	0
1269	1.57259568	0
1270	1.57258461	0
1271	1.57257356	0
1272	1.57256252	0
1273	1.57255149	0
1274	1.57254049	0
1275	1.57252949	0
1276	1.57251852	0
1277	1.57250756	0
1278	1.57249662	0
1279	1.57248569	0
1280	1.57247478	0
1281	1.57246388	0
1282	1.572453	0
1283	1.57244214	0
1284	1.57243129	0
1285	1.57242045	0
1286	1.57240963	0
1287	1.57239883	0
1288	1.57238804	0
1289	1.57237727	0
1290	1.57236651	0
1291	1.57235577	0
1292	1.57234505	0
1293	1.57233433	0
1294	1.57232364	0
1295	1.57231296	0
1296	1.57230229	0
1297	1.57229164	0
1298	1.572281	0
1299	1.57227038	0
1300	1.57225977	0
1301	1.57224917	0
1302	1.5722386	0
1303	1.57222803	0
1304	1.57221748	0
1305	1.57220695	0
1306	1.57219642	0
1307	1.57218592	0
1308	1.57217542	0
1309	1.57216495	0
1310	1.57215448	0
1311	1.57214403	0
1312	1.57213359	0
1313	1.57212317	0
1314	1.57211276	0
1315	1.57210237	0
1316	1.57209199	0
1317	1.57208162	0
1318	1.57207127	0
1319	1.57206093	0
1320	1.5720506	0
1321	1.57204029	0
1322	1.57202999	0
1323	1.5720197	0
1324	1.57200943	0
1325	1.57199917	0
1326	1.57198892	0
1327	1.57197869	0
1328	1.57196847	0
1329	1.57195826	0
1330	1.57194807	0
1331	1.57193789	0
1332	1.57192772	0
1333	1.57191757	0
1334	1.57190743	0
1335	1.5718973	0
1336	1.57188718	0
1337	1.57187708	0
1338	1.57186699	0
1339	1.57185691	0
1340	1.57184685	0
1341	1.57183679	0
1342	1.57182675	0
1343	1.57181673	0
1344	1.57180671	0
1345	1.57179671	0
1346	1.57178672	0
1347	1.57177674	0
1348	1.57176677	0
1349	1.57175682	0
1350	1.57174688	0
1351	1.57173695	0
1352	1.57172703	0
1353	1.57171713	0
1354	1.57170723	0
1355	1.57169735	0
1356	1.57168748	0
1357	1.57167762	0
1358	1.57166778	0
1359	1.57165794	0
1360	1.57164812	0
1361	1.57163831	0
1362	1.57162851	0
1363	1.57161872	0
1364	1.57160895	0
1365	1.57159918	0
1366	1.57158943	0
1367	1.57157969	0
1368	1.57156995	0
1369	1.57156024	0
1370	1.57155053	0
1371	1.57154083	0
1372	1.57153115	0
1373	1.57152147	0
1374	1.57151181	0
1375	1.57150216	0
1376	1.57149251	0
1377	1.57148288	0
1378	1.57147326	0
1379	1.57146366	0
1380	1.57145406	0
1381	1.57144447	0
1382	1.5714349	0
1383	1.57142533	0
1384	1.57141578	0
1385	1.57140623	0
1386	1.5713967	0
1387	1.57138718	0
1388	1.57137766	0
1389	1.57136816	0
1390	1.57135867	0
1391	1.57134919	0
1392	1.57133972	0
1393	1.57133026	0
1394	1.57132081	0
1395	1.57131137	0
1396	1.57130194	0
1397	1.57129252	0
1398	1.57128311	0
1399	1.57127372	0
1400	1.57126433	0
1401	1.57125495	0
1402	1.57124558	0
1403	1.57123622	0
1404	1.57122687	0
1405	1.57121753	0
1406	1.57120821	0
1407	1.57119889	0
1408	1.57118958	0
1409	1.57118028	0
1410	1.57117099	0
1411	1.57116171	0
1412	1.57115244	0
1413	1.57114318	0
1414	1.57113392	0
1415	1.57112468	0
1416	1.57111545	0
1417	1.57110623	0
1418	1.57109701	0
1419	1.57108781	0
1420	1.57107862	0
1421	1.57106943	0
1422	1.57106025	0
1423	1.57105109	0
1424	1.57104193	0
1425	1.57103278	0
1426	1.57102364	0
1427	1.57101451	0
1428	1.57100539	0
1429	1.57099628	0
1430	1.57098718	0
1431	1.57097808	0
1432	1.570969	0
1433	1.57095992	0
1434	1.57095085	0
1435	1.5709418	0
1436	1.57093275	0
1437	1.57092371	0
1438	1.57091467	0
1439	1.57090565	0
1440	1.57089664	0
1441	1.57088763	0
1442	1.57087863	0
1443	1.57086964	0
1444	1.57086066	0
1445	1.57085169	0
1446	1.57084273	0
1447	1.57083377	0
1448	1.57082483	0
1449	1.57081589	0
1450	1.57080696	0
1451	1.57079804	0
1452	1.57078913	0
1453	1.57078022	0
1454	1.57077133	0
1455	1.57076244	0
1456	1.57075356	0
1457	1.57074469	0
1458	1.57073582	0
1459	1.57072697	0
1460	1.57071812	0
1461	1.57070928	0
1462	1.57070045	0
1463	1.57069163	0
1464	1.57068281	0
1465	1.570674	0
1466	1.5706652	0
1467	1.57065641	0
1468	1.57064763	0
1469	1.57063885	0
1470	1.57063008	0
1471	1.57062132	0
1472	1.57061257	0
1473	1.57060382	0
1474	1.57059509	0
1475	1.57058636	0
1476	1.57057763	0
1477	1.57056892	0
1478	1.57056021	0
1479	1.57055151	0
1480	1.57054282	0
1481	1.57053413	0
1482	1.57052546	0
1483	1.57051679	0
1484	1.57050812	0
1485	1.57049947	0
1486	1.57049082	0
1487	1.57048218	0
1488	1.57047355	0
1489	1.57046492	0
1490	1.5704563	0
1491	1.57044769	0
1492	1.57043908	0
1493	1.57043049	0
1494	1.5704219	0
1495	1.57041331	0
1496	1.57040474	0
1497	1.57039617	0
1498	1.5703876	0
1499	1.57037905	0
1500	1.5703705	0
1501	1.57036196	0
1502	1.57035342	0
1503	1.5703449	0
1504	1.57033638	0
1505	1.57032786	0
1506	1.57031935	0
1507	1.57031085	0
1508	1.57030236	0
1509	1.57029387	0
1510	1.57028539	0
1511	1.57027692	0
1512	1.57026845	0
1513	1.57025999	0
1514	1.57025154	0
1515	1.57024309	0
1516	1.57023465	0
1517	1.57022621	0
1518	1.57021778	0
1519	1.57020936	0
1520	1.57020095	0
1521	1.57019254	0
1522	1.57018414	0
1523	1.57017574	0
1524	1.57016735	0
1525	1.57015897	0
1526	1.57015059	0
1527	1.57014222	0
1528	1.57013385	0
1529	1.5701255	0
1530	1.57011714	0
1531	1.5701088	0
1532	1.57010046	0
1533	1.57009212	0
1534	1.5700838	0
1535	1.57007548	0
1536	1.57006716	0
1537	1.57005885	0
1538	1.57005055	0
1539	1.57004225	0
1540	1.57003396	0
1541	1.57002567	0
1542	1.57001739	0
1543	1.57000912	0
1544	1.57000085	0
1545	1.56999259	0
1546	1.56998433	0
1547	1.56997608	0
1548	1.56996784	0
1549	1.5699596	0
1550	1.56995137	0
1551	1.56994314	0
1552	1.56993492	0
1553	1.5699267	0
1554	1.56991849	0
1555	1.56991028	0
1556	1.56990209	0
1557	1.56989389	0
1558	1.5698857	0
1559	1.56987752	0
1560	1.56986934	0
1561	1.56986117	0
1562	1.56985301	0
1563	1.56984485	0
1564	1.56983669	0
1565	1.56982854	0
1566	1.5698204	0
1567	1.56981226	0
1568	1.56980412	0
1569	1.569796	0
1570	1.56978787	0
1571	1.56977975	0
1572	1.56977164	0
1573	1.56976353	0
1574	1.56975543	0
1575	1.56974734	0
1576	1.56973924	0
1577	1.56973116	0
1578	1.56972308	0
1579	1.569715	0
1580	1.56970693	0
1581	1.56969886	0
1582	1.5696908	0
1583	1.56968275	0
1584	1.56967469	0
1585	1.56966665	0
1586	1.56965861	0
1587	1.56965057	0
1588	1.56964254	0
1589	1.56963451	0
1590	1.56962649	0
1591	1.56961848	0
1592	1.56961046	0
1593	1.56960246	0
1594	1.56959446	0
1595	1.56958646	0
1596	1.56957847	0
1597	1.56957048	0
1598	1.5695625	0
1599	1.56955452	0
1600	1.56954655	0
1601	1.56953858	0
1602	1.56953061	0
1603	1.56952265	0
1604	1.5695147	0
1605	1.56950675	0
1606	1.5694988	0
1607	1.56949086	0
1608	1.56948293	0
1609	1.569475	0
1610	1.56946707	0
1611	1.56945915	0
1612	1.56945123	0
1613	1.56944331	0
1614	1.5694354	0
1615	1.5694275	0
1616	1.5694196	0
1617	1.5694117	0
1618	1.56940381	0
1619	1.56939592	0
1620	1.56938804	0
1621	1.56938016	0
1622	1.56937229	0
1623	1.56936442	0
1624	1.56935655	0
1625	1.56934869	0
1626	1.56934083	0
1627	1.56933298	0
1628	1.56932513	0
1629	1.56931729	0
1630	1.56930945	0
1631	1.56930161	0
1632	1.56929378	0
1633	1.56928595	0
1634	1.56927813	0
1635	1.56927031	0
1636	1.56926249	0
1637	1.56925468	0
1638	1.56924687	0
1639	1.56923907	0
1640	1.56923127	0
1641	1.56922347	0
1642	1.56921568	0
1643	1.5692079	0
1644	1.56920011	0
1645	1.56919233	0
1646	1.56918456	0
1647	1.56917678	0
1648	1.56916902	0
1649	1.56916125	0
1650	1.56915349	0
1651	1.56914574	0
1652	1.56913798	0
1653	1.56913023	0
1654	1.56912249	0
1655	1.56911475	0
1656	1.56910701	0
1657	1.56909928	0
1658	1.56909155	0
1659	1.56908382	0
1660	1.5690761	0
1661	1.56906838	0
1662	1.56906066	0
1663	1.56905295	0
1664	1.56904524	0
1665	1.56903754	0
1666	1.56902984	0
1667	1.56902214	0
1668	1.56901444	0
1669	1.56900675	0
1670	1.56899907	0
1671	1.56899138	0
1672	1.5689837	0
1673	1.56897603	0
1674	1.56896835	0
1675	1.56896069	0
1676	1.56895302	0
1677	1.56894536	0
1678	1.5689377	0
1679	1.56893004	0
1680	1.56892239	0
1681	1.56891474	0
1682	1.5689071	0
1683	1.56889945	0
1684	1.56889181	0
1685	1.56888418	0
1686	1.56887655	0
1687	1.56886892	0
1688	1.56886129	0
1689	1.56885367	0
1690	1.56884605	0
1691	1.56883843	0
1692	1.56883082	0
1693	1.56882321	0
1694	1.56881561	0
1695	1.568808	0
1696	1.5688004	0
1697	1.56879281	0
1698	1.56878521	0
1699	1.56877762	0
1700	1.56877003	0
