﻿nm	n	k
190	1.33910179	0.72116635
191	1.435630995	0.635707994
192	1.469988354	0.555569673
193	1.455401065	0.507414188
194	1.421843945	0.516056106
195	1.419846838	0.570532771
196	1.463244843	0.628751199
197	1.537233801	0.660681738
198	1.613114797	0.654576694
199	1.66755676	0.626447642
200	1.698938824	0.59455431
201	1.713013784	0.571691897
202	1.723395296	0.564996059
203	1.742406504	0.566765848
204	1.771387463	0.567283653
205	1.80686994	0.559368734
206	1.840947472	0.53940105
207	1.866581677	0.511942827
208	1.882684264	0.482541851
209	1.890443044	0.455553291
210	1.893310923	0.434269559
211	1.895879506	0.418017942
212	1.899784341	0.404331104
213	1.905187395	0.39116328
214	1.911205108	0.376818609
215	1.915790404	0.360943033
216	1.917911036	0.344833356
217	1.91755426	0.329702352
218	1.915238116	0.316610867
219	1.912197912	0.306339446
220	1.909925117	0.298400155
221	1.908978425	0.291823623
222	1.909449348	0.285750261
223	1.911085289	0.279414714
224	1.91315146	0.272348693
225	1.915012742	0.26486393
226	1.916535776	0.25738081
227	1.917825601	0.250264529
228	1.919220298	0.24383161
229	1.921474939	0.238110982
230	1.925138761	0.232374156
231	1.930205027	0.225828575
232	1.93637601	0.21776651
233	1.943081928	0.20755693
234	1.94928253	0.194796511
235	1.953906509	0.179953738
236	1.956488972	0.163709798
237	1.956817649	0.146667348
238	1.954823072	0.129374038
239	1.950549483	0.112337373
240	1.944145727	0.095989615
241	1.935784849	0.080696225
242	1.925676947	0.066813966
243	1.914101681	0.05469869
244	1.901454456	0.044708502
245	1.888400068	0.037137827
246	1.875738733	0.031764658
247	1.863894803	0.02812894
248	1.853090696	0.025782343
249	1.843410031	0.024286645
250	1.834800373	0.023214389
251	1.826997954	0.02219512
252	1.819642868	0.021177078
253	1.812563296	0.020238644
254	1.805671287	0.019454964
255	1.798925858	0.018898218
256	1.792321474	0.018637731
257	1.785894088	0.018737469
258	1.779718175	0.019214128
259	1.773844318	0.020046528
260	1.76831012	0.021212704
261	1.76315183	0.022690879
262	1.758409754	0.024459392
263	1.754138409	0.026496354
264	1.750436635	0.02875438
265	1.747384026	0.031087514
266	1.744979481	0.033331507
267	1.743174017	0.035329195
268	1.741875291	0.036931418
269	1.740941384	0.037997399
270	1.740152864	0.038395164
271	1.739116969	0.038105551
272	1.737517363	0.037424412
273	1.735254521	0.036691315
274	1.732342206	0.036230062
275	1.728886085	0.036350992
276	1.725088339	0.037352087
277	1.721281934	0.039518305
278	1.718079292	0.043044797
279	1.716191502	0.047580145
280	1.715925334	0.052549507
281	1.717366045	0.057399764
282	1.7204466	0.061606844
283	1.724967797	0.064679976
284	1.730597054	0.066166191
285	1.736821463	0.06565207
286	1.742781021	0.062971325
287	1.747767738	0.058553112
288	1.751450475	0.052890134
289	1.753664029	0.046438408
290	1.754352047	0.039623284
291	1.753545047	0.032847103
292	1.751358348	0.02649459
293	1.748014956	0.02093767
294	1.743948968	0.016459101
295	1.739605655	0.01299751
296	1.735228666	0.010407856
297	1.730976495	0.008551356
298	1.726957122	0.007294002
299	1.723241314	0.006505954
300	1.719868145	0.006061043
301	1.716846635	0.005836827
302	1.714147329	0.005715474
303	1.711689381	0.00562476
304	1.70941617	0.005553578
305	1.70729687	0.005495526
306	1.705310482	0.005444387
307	1.703440429	0.005394131
308	1.701673002	0.005338926
309	1.699995825	0.005273141
310	1.698396759	0.005191335
311	1.69686272	0.005088301
312	1.695376781	0.004962776
313	1.693925749	0.004821025
314	1.692501731	0.004669986
315	1.691099523	0.004516344
316	1.689716061	0.004366559
317	1.688350072	0.004226859
318	1.687001908	0.004103253
319	1.685673727	0.004001532
320	1.684369949	0.003927284
321	1.683099135	0.003885498
322	1.68187461	0.003873429
323	1.680703623	0.003881646
324	1.679589181	0.003900791
325	1.678531942	0.003921824
326	1.677530713	0.003936012
327	1.676582829	0.003934927
328	1.675684037	0.003910436
329	1.674828516	0.003854696
330	1.674008345	0.003760151
331	1.67321236	0.003619542
332	1.672422874	0.003430675
333	1.671625661	0.003201614
334	1.670812722	0.00294148
335	1.669978883	0.002659064
336	1.669121021	0.002362878
337	1.668237498	0.002061142
338	1.667328193	0.001761807
339	1.666394212	0.00147256
340	1.665437973	0.001200822
341	1.66446349	0.000953791
342	1.663477125	0.000738388
343	1.662489582	0.000558411
344	1.661509666	0.000411069
345	1.660542648	0.000292804
346	1.659592101	0.000200161
347	1.658660609	0.000129791
348	1.657750073	7.8445E-05
349	1.656861642	4.29725E-05
350	1.655996015	2.03173E-05
351	1.655153437	7.51655E-06
352	1.654333582	1.6986E-06
353	1.653535697	8.02452E-08
354	1.652758149	0
355	1.651998305	0
356	1.65125422	0
357	1.650524704	0
358	1.649808777	0
359	1.649105697	0
360	1.648414814	0
361	1.647735567	0
362	1.647067455	0
363	1.646410064	0
364	1.645762984	0
365	1.645125831	0
366	1.644498313	0
367	1.643880105	0
368	1.643270945	0
369	1.642670509	0
370	1.642078622	0
371	1.641494989	0
372	1.640919407	0
373	1.640351731	0
374	1.639791664	0
375	1.639239061	0
376	1.638693748	0
377	1.638155579	0
378	1.637624316	0
379	1.637099905	0
380	1.636582079	0
381	1.636070781	0
382	1.635565865	0
383	1.635067155	0
384	1.634574562	0
385	1.634087941	0
386	1.633607174	0
387	1.633132144	0
388	1.632662733	0
389	1.632198854	0
390	1.63174039	0
391	1.631287222	0
392	1.630839293	0
393	1.630396486	0
394	1.62995868	0
395	1.629525821	0
396	1.629097818	0
397	1.628674553	0
398	1.628256	0
399	1.627842007	0
400	1.627432549	0
401	1.627027566	0
402	1.626626909	0
403	1.626230549	0
404	1.62583843	0
405	1.625450461	0
406	1.625066583	0
407	1.624686739	0
408	1.624310838	0
409	1.623938823	0
410	1.623570633	0
411	1.623206241	0
412	1.622845556	0
413	1.622488552	0
414	1.622135136	0
415	1.621785251	0
416	1.621438867	0
417	1.621095926	0
418	1.620756397	0
419	1.620420192	0
420	1.620087282	0
421	1.619757605	0
422	1.619431135	0
423	1.61910781	0
424	1.618787602	0
425	1.618470451	0
426	1.618156297	0
427	1.617845141	0
428	1.617536924	0
429	1.617231585	0
430	1.616929126	0
431	1.616629457	0
432	1.616332577	0
433	1.616038428	0
434	1.615746979	0
435	1.615458201	0
436	1.615172034	0
437	1.614888479	0
438	1.614607476	0
439	1.614328994	0
440	1.614053035	0
441	1.613779508	0
442	1.613508413	0
443	1.613239722	0
444	1.612973403	0
445	1.612709428	0
446	1.612447736	0
447	1.612188326	0
448	1.611931171	0
449	1.61167627	0
450	1.611423532	0
451	1.611172958	0
452	1.610924517	0
453	1.61067818	0
454	1.610433948	0
455	1.61019179	0
456	1.609951676	0
457	1.609713546	0
458	1.6094774	0
459	1.609243238	0
460	1.609011001	0
461	1.608780687	0
462	1.608552299	0
463	1.608325744	0
464	1.608101054	0
465	1.607878198	0
466	1.607657146	0
467	1.607437868	0
468	1.607220364	0
469	1.607004605	0
470	1.60679059	0
471	1.606578258	0
472	1.606367642	0
473	1.606158678	0
474	1.605951338	0
475	1.605745652	0
476	1.605541591	0
477	1.605339123	0
478	1.605138218	0
479	1.604938877	0
480	1.604741069	0
481	1.604544795	0
482	1.604350024	0
483	1.604156757	0
484	1.603964962	0
485	1.60377461	0
486	1.603585732	0
487	1.603398266	0
488	1.603212213	0
489	1.603027573	0
490	1.602844284	0
491	1.60266241	0
492	1.602481856	0
493	1.602302656	0
494	1.602124777	0
495	1.601948189	0
496	1.601772955	0
497	1.601598951	0
498	1.601426271	0
499	1.601254789	0
500	1.601084601	0
501	1.600915644	0
502	1.600747888	0
503	1.600581363	0
504	1.600416008	0
505	1.600251855	0
506	1.600088873	0
507	1.59992703	0
508	1.599766358	0
509	1.599606827	0
510	1.599448405	0
511	1.599291124	0
512	1.599134922	0
513	1.598979831	0
514	1.598825819	0
515	1.598672856	0
516	1.598520973	0
517	1.598370139	0
518	1.598220354	0
519	1.598071619	0
520	1.597923872	0
521	1.597777143	0
522	1.597631403	0
523	1.597486682	0
524	1.597342919	0
525	1.597200175	0
526	1.597058358	0
527	1.596917499	0
528	1.596777567	0
529	1.596638594	0
530	1.596500548	0
531	1.59636343	0
532	1.596227208	0
533	1.596091915	0
534	1.595957487	0
535	1.595823956	0
536	1.595691324	0
537	1.595559526	0
538	1.595428594	0
539	1.595298561	0
540	1.595169333	0
541	1.59504094	0
542	1.594913415	0
543	1.594786663	0
544	1.594660779	0
545	1.594535669	0
546	1.594411365	0
547	1.594287866	0
548	1.594165173	0
549	1.594043224	0
550	1.593922081	0
551	1.593801682	0
552	1.593682057	0
553	1.593563177	0
554	1.593445041	0
555	1.59332765	0
556	1.593211003	0
557	1.593095069	0
558	1.592979849	0
559	1.592865374	0
560	1.592751581	0
561	1.592638503	0
562	1.592526138	0
563	1.592414456	0
564	1.592303426	0
565	1.59219311	0
566	1.592083446	0
567	1.591974466	0
568	1.591866138	0
569	1.591758493	0
570	1.591651469	0
571	1.591545098	0
572	1.59143938	0
573	1.591334283	0
574	1.591229839	0
575	1.591125985	0
576	1.591022784	0
577	1.590920174	0
578	1.590818186	0
579	1.590716788	0
580	1.590616013	0
581	1.590515797	0
582	1.590416203	0
583	1.59031717	0
584	1.590218727	0
585	1.590120876	0
586	1.590023585	0
587	1.589926854	0
588	1.589830683	0
589	1.589735072	0
590	1.589640022	0
591	1.589545501	0
592	1.589451541	0
593	1.589358109	0
594	1.589265239	0
595	1.589172867	0
596	1.589081055	0
597	1.588989742	0
598	1.588898958	0
599	1.588808673	0
600	1.588718918	0
601	1.588629661	0
602	1.588540903	0
603	1.588452643	0
604	1.588364883	0
605	1.588277621	0
606	1.588190826	0
607	1.588104531	0
608	1.588018734	0
609	1.587933374	0
610	1.587848513	0
611	1.58776412	0
612	1.587680194	0
613	1.587596706	0
614	1.587513685	0
615	1.587431132	0
616	1.587349048	0
617	1.587267369	0
618	1.587186158	0
619	1.587105384	0
620	1.587025047	0
621	1.586945179	0
622	1.586865684	0
623	1.586786659	0
624	1.586708039	0
625	1.586629856	0
626	1.586552079	0
627	1.58647474	0
628	1.586397806	0
629	1.586321247	0
630	1.586245126	0
631	1.586169411	0
632	1.586094102	0
633	1.586019168	0
634	1.58594464	0
635	1.585870518	0
636	1.585796771	0
637	1.5857234	0
638	1.585650434	0
639	1.585577844	0
640	1.585505629	0
641	1.585433789	0
642	1.585362325	0
643	1.585291235	0
644	1.585220521	0
645	1.585150151	0
646	1.585080156	0
647	1.585010505	0
648	1.584941229	0
649	1.584872329	0
650	1.584803742	0
651	1.58473553	0
652	1.584667631	0
653	1.584600107	0
654	1.584532928	0
655	1.584466093	0
656	1.584399571	0
657	1.584333393	0
658	1.584267559	0
659	1.58420207	0
660	1.584136894	0
661	1.584072031	0
662	1.584007513	0
663	1.583943307	0
664	1.583879415	0
665	1.583815835	0
666	1.583752601	0
667	1.583689648	0
668	1.583627039	0
669	1.583564713	0
670	1.5835027	0
671	1.583441	0
672	1.583379613	0
673	1.583318509	0
674	1.583257686	0
675	1.583197208	0
676	1.583136981	0
677	1.583077067	0
678	1.583017435	0
679	1.582958117	0
680	1.582899049	0
681	1.582840295	0
682	1.582781823	0
683	1.582723633	0
684	1.582665694	0
685	1.582608069	0
686	1.582550694	0
687	1.582493602	0
688	1.582436792	0
689	1.582380232	0
690	1.582323987	0
691	1.582267961	0
692	1.582212217	0
693	1.582156724	0
694	1.582101514	0
695	1.582046554	0
696	1.581991877	0
697	1.58193742	0
698	1.581883245	0
699	1.581829289	0
700	1.581775616	0
701	1.581722194	0
702	1.581669024	0
703	1.581616072	0
704	1.581563404	0
705	1.581510955	0
706	1.581458757	0
707	1.581406779	0
708	1.581355083	0
709	1.581303608	0
710	1.581252352	0
711	1.581201347	0
712	1.581150562	0
713	1.581100028	0
714	1.581049715	0
715	1.58099962	0
716	1.580949778	0
717	1.580900155	0
718	1.580850752	0
719	1.580801569	0
720	1.580752606	0
721	1.580703862	0
722	1.58065537	0
723	1.580607067	0
724	1.580558983	0
725	1.58051112	0
726	1.580463476	0
727	1.580416021	0
728	1.580368818	0
729	1.580321803	0
730	1.580274976	0
731	1.580228401	0
732	1.580181983	0
733	1.580135817	0
734	1.580089839	0
735	1.58004405	0
736	1.579998481	0
737	1.579953101	0
738	1.57990794	0
739	1.579862937	0
740	1.579818154	0
741	1.579773591	0
742	1.579729186	0
743	1.579685	0
744	1.579641004	0
745	1.579597164	0
746	1.579553545	0
747	1.579510114	0
748	1.579466872	0
749	1.579423819	0
750	1.579380955	0
751	1.579338247	0
752	1.579295761	0
753	1.579253431	0
754	1.57921129	0
755	1.579169307	0
756	1.579127544	0
757	1.579085938	0
758	1.579044521	0
759	1.579003262	0
760	1.578962191	0
761	1.578921277	0
762	1.578880553	0
763	1.578839986	0
764	1.578799607	0
765	1.578759386	0
766	1.578719354	0
767	1.57867948	0
768	1.578639763	0
769	1.578600203	0
770	1.578560832	0
771	1.578521618	0
772	1.578482562	0
773	1.578443696	0
774	1.578404954	0
775	1.578366402	0
776	1.578327976	0
777	1.578289739	0
778	1.578251659	0
779	1.578213737	0
780	1.578175941	0
781	1.578138334	0
782	1.578100852	0
783	1.57806356	0
784	1.578026394	0
785	1.577989385	0
786	1.577952534	0
787	1.577915841	0
788	1.577879273	0
789	1.577842863	0
790	1.57780661	0
791	1.577770484	0
792	1.577734515	0
793	1.577698704	0
794	1.57766305	0
795	1.577627491	0
796	1.577592121	0
797	1.577556877	0
798	1.577521759	0
799	1.577486799	0
800	1.577451964	0
801	1.577417288	0
802	1.577382737	0
803	1.577348345	0
804	1.577314078	0
805	1.577279937	0
806	1.577245922	0
807	1.577212066	0
808	1.577178335	0
809	1.57714473	0
810	1.577111283	0
811	1.577077931	0
812	1.577044736	0
813	1.577011668	0
814	1.576978725	0
815	1.576945909	0
816	1.576913219	0
817	1.576880655	0
818	1.576848249	0
819	1.576815937	0
820	1.576783752	0
821	1.576751693	0
822	1.57671976	0
823	1.576687984	0
824	1.576656304	0
825	1.576624718	0
826	1.576593289	0
827	1.576561987	0
828	1.57653078	0
829	1.576499699	0
830	1.576468744	0
831	1.576437915	0
832	1.576407181	0
833	1.576376605	0
834	1.576346123	0
835	1.576315736	0
836	1.576285475	0
837	1.576255341	0
838	1.576225333	0
839	1.576195419	0
840	1.576165632	0
841	1.57613594	0
842	1.576106373	0
843	1.576076902	0
844	1.576047556	0
845	1.576018337	0
846	1.575989181	0
847	1.575960184	0
848	1.57593128	0
849	1.575902472	0
850	1.575873758	0
851	1.57584517	0
852	1.575816709	0
853	1.575788311	0
854	1.575760071	0
855	1.575731893	0
856	1.575703843	0
857	1.575675887	0
858	1.575648025	0
859	1.575620291	0
860	1.575592619	0
861	1.575565073	0
862	1.575537654	0
863	1.575510298	0
864	1.575483069	0
865	1.575455902	0
866	1.575428862	0
867	1.575401917	0
868	1.575375066	0
869	1.575348311	0
870	1.575321681	0
871	1.575295115	0
872	1.575268675	0
873	1.575242299	0
874	1.575216049	0
875	1.575189862	0
876	1.575163801	0
877	1.575137803	0
878	1.575111933	0
879	1.575086125	0
880	1.575060412	0
881	1.575034825	0
882	1.575009302	0
883	1.574983873	0
884	1.574958539	0
885	1.574933268	0
886	1.574908124	0
887	1.574883075	0
888	1.574858089	0
889	1.574833198	0
890	1.574808401	0
891	1.574783699	0
892	1.574759061	0
893	1.574734517	0
894	1.574710069	0
895	1.574685715	0
896	1.574661424	0
897	1.574637228	0
898	1.574613127	0
899	1.574589121	0
900	1.574565178	0
901	1.57454133	0
902	1.574517545	0
903	1.574493855	0
904	1.57447026	0
905	1.574446728	0
906	1.574423291	0
907	1.574399917	0
908	1.574376639	0
909	1.574353455	0
910	1.574330334	0
911	1.574307308	0
912	1.574284345	0
913	1.574261446	0
914	1.574238673	0
915	1.574215932	0
916	1.574193285	0
917	1.574170734	0
918	1.574148246	0
919	1.574125821	0
920	1.574103491	0
921	1.574081224	0
922	1.574059052	0
923	1.574036944	0
924	1.57401493	0
925	1.57399298	0
926	1.573971092	0
927	1.573949269	0
928	1.57392754	0
929	1.573905874	0
930	1.573884303	0
931	1.573862796	0
932	1.573841352	0
933	1.573819971	0
934	1.573798685	0
935	1.573777462	0
936	1.573756303	0
937	1.573735206	0
938	1.573714205	0
939	1.573693267	0
940	1.573672393	0
941	1.573651582	0
942	1.573630865	0
943	1.57361018	0
944	1.573589591	0
945	1.573569064	0
946	1.573548601	0
947	1.573528233	0
948	1.573507896	0
949	1.573487655	0
950	1.573467445	0
951	1.57344733	0
952	1.573427278	0
953	1.57340729	0
954	1.573387365	0
955	1.573367503	0
956	1.573347705	0
957	1.573328001	0
958	1.57330833	0
959	1.573288721	0
960	1.573269176	0
961	1.573249726	0
962	1.573230307	0
963	1.573210952	0
964	1.573191692	0
965	1.573172464	0
966	1.573153298	0
967	1.573134196	0
968	1.57311519	0
969	1.573096214	0
970	1.573077303	0
971	1.573058454	0
972	1.573039669	0
973	1.573020915	0
974	1.573002257	0
975	1.572983662	0
976	1.572965098	0
977	1.57294663	0
978	1.572928193	0
979	1.572909819	0
980	1.572891509	0
981	1.572873263	0
982	1.572855047	0
983	1.572836927	0
984	1.572818839	0
985	1.572800814	0
986	1.572782852	0
987	1.572764954	0
988	1.572747087	0
989	1.572729284	0
990	1.572711544	0
991	1.572693867	0
992	1.572676254	0
993	1.572658672	0
994	1.572641154	0
995	1.572623699	0
996	1.572606276	0
997	1.572588948	0
998	1.572571652	0
999	1.572554387	0
1000	1.572537217	0
1002.5	1.572494452	0
1005	1.572452066	0
1007.5	1.572409966	0
1010	1.572368214	0
1012.5	1.572326779	0
1015	1.572285661	0
1017.5	1.57224486	0
1020	1.572204376	0
1022.5	1.572164209	0
1025	1.572124327	0
1027.5	1.572084762	0
1030	1.572045483	0
1032.5	1.57200652	0
1035	1.571967843	0
1037.5	1.57192942	0
1040	1.571891313	0
1042.5	1.571853492	0
1045	1.571815956	0
1047.5	1.571778706	0
1050	1.571741709	0
1052.5	1.571704998	0
1055	1.571668572	0
1057.5	1.5716324	0
1060	1.571596481	0
1062.5	1.571560848	0
1065	1.571525437	0
1067.5	1.571490312	0
1070	1.57145544	0
1072.5	1.571420822	0
1075	1.571386458	0
1077.5	1.571352316	0
1080	1.571318459	0
1082.5	1.571284825	0
1085	1.571251412	0
1087.5	1.571218253	0
1090	1.571185349	0
1092.5	1.571152634	0
1095	1.571120205	0
1097.5	1.571087967	0
1100	1.571055951	0
1102.5	1.571024188	0
1105	1.570992648	0
1107.5	1.570961298	0
1110	1.570930202	0
1112.5	1.570899297	0
1115	1.570868613	0
1117.5	1.570838152	0
1120	1.570807881	0
1122.5	1.570777833	0
1125	1.570747975	0
1127.5	1.570718339	0
1130	1.570688925	0
1132.5	1.57065967	0
1135	1.570630638	0
1137.5	1.570601795	0
1140	1.570573176	0
1142.5	1.570544714	0
1145	1.570516444	0
1147.5	1.570488395	0
1150	1.570460506	0
1152.5	1.570432807	0
1155	1.570405298	0
1157.5	1.57037798	0
1160	1.570350853	0
1162.5	1.570323884	0
1165	1.570297106	0
1167.5	1.570270518	0
1170	1.570244089	0
1172.5	1.570217819	0
1175	1.57019174	0
1177.5	1.570165819	0
1180	1.570140089	0
1182.5	1.570114518	0
1185	1.570089106	0
1187.5	1.570063852	0
1190	1.570038789	0
1192.5	1.570013853	0
1195	1.569989108	0
1197.5	1.569964522	0
1200	1.569940063	0
1202.5	1.569915794	0
1205	1.569891652	0
1207.5	1.56986767	0
1210	1.569843878	0
1212.5	1.569820181	0
1215	1.569796675	0
1217.5	1.569773296	0
1220	1.569750076	0
1222.5	1.569727014	0
1225	1.56970408	0
1227.5	1.569681273	0
1230	1.569658625	0
1232.5	1.569636136	0
1235	1.569613774	0
1237.5	1.569591539	0
1240	1.569569463	0
1242.5	1.569547514	0
1245	1.569525693	0
1247.5	1.569503998	0
1250	1.569482462	0
1252.5	1.569461054	0
1255	1.569439773	0
1257.5	1.569418618	0
1260	1.569397591	0
1262.5	1.569376692	0
1265	1.569355919	0
1267.5	1.569335273	0
1270	1.569314755	0
1272.5	1.569294364	0
1275	1.5692741	0
1277.5	1.569253963	0
1280	1.569233921	0
1282.5	1.569214007	0
1285	1.56919422	0
1287.5	1.56917456	0
1290	1.569154996	0
1292.5	1.569135558	0
1295	1.569116248	0
1297.5	1.569097033	0
1300	1.569077914	0
1302.5	1.569058954	0
1305	1.569040089	0
1307.5	1.569021319	0
1310	1.569002677	0
1312.5	1.56898413	0
1315	1.568965678	0
1317.5	1.568947354	0
1320	1.568929125	0
1322.5	1.568911024	0
1325	1.568893017	0
1327.5	1.568875107	0
1330	1.568857323	0
1332.5	1.568839603	0
1335	1.56882201	0
1337.5	1.568804513	0
1340	1.568787111	0
1342.5	1.568769805	0
1345	1.568752625	0
1347.5	1.56873551	0
1350	1.568718522	0
1352.5	1.568701597	0
1355	1.568684799	0
1357.5	1.568668066	0
1360	1.568651459	0
1362.5	1.568634916	0
1365	1.568618469	0
1367.5	1.568602148	0
1370	1.568585892	0
1372.5	1.568569731	0
1375	1.568553633	0
1377.5	1.568537663	0
1380	1.568521756	0
1382.5	1.568505945	0
1385	1.568490229	0
1387.5	1.568474609	0
1390	1.568459053	0
1392.5	1.568443592	0
1395	1.568428226	0
1397.5	1.568412924	0
1400	1.568397717	0
1402.5	1.568382606	0
1405	1.568367559	0
1407.5	1.568352575	0
1410	1.568337719	0
1412.5	1.568322894	0
1415	1.568308197	0
1417.5	1.568293531	0
1420	1.568278993	0
1422.5	1.568264487	0
1425	1.568250076	0
1427.5	1.56823576	0
1430	1.568221509	0
1432.5	1.56820732	0
1435	1.568193228	0
1437.5	1.568179199	0
1440	1.568165266	0
1442.5	1.568151364	0
1445	1.568137558	0
1447.5	1.568123847	0
1450	1.568110168	0
1452.5	1.568096585	0
1455	1.568083065	0
1457.5	1.568069641	0
1460	1.568056249	0
1462.5	1.568042952	0
1465	1.568029719	0
1467.5	1.56801655	0
1470	1.568003444	0
1472.5	1.567990402	0
1475	1.567977455	0
1477.5	1.567964572	0
1480	1.567951721	0
1482.5	1.567938966	0
1485	1.567926274	0
1487.5	1.567913646	0
1490	1.567901081	0
1492.5	1.567888548	0
1495	1.567876111	0
1497.5	1.567863738	0
1500	1.567851428	0
1502.5	1.567839182	0
1505	1.567826999	0
1507.5	1.567814849	0
1510	1.567802794	0
1512.5	1.567790802	0
1515	1.567778843	0
1517.5	1.567766947	0
1520	1.567755147	0
1522.5	1.567743378	0
1525	1.567731673	0
1527.5	1.567720001	0
1530	1.567708423	0
1532.5	1.567696878	0
1535	1.567685428	0
1537.5	1.567674009	0
1540	1.567662623	0
1542.5	1.567651332	0
1545	1.567640073	0
1547.5	1.567628878	0
1550	1.567617747	0
1552.5	1.567606647	0
1555	1.567595611	0
1557.5	1.567584639	0
1560	1.56757373	0
1562.5	1.567562854	0
1565	1.567552041	0
1567.5	1.567541259	0
1570	1.567530574	0
1572.5	1.567519888	0
1575	1.567509298	0
1577.5	1.56749874	0
1580	1.567488214	0
1582.5	1.567477783	0
1585	1.567467352	0
1587.5	1.567457017	0
1590	1.567446714	0
1592.5	1.567436442	0
1595	1.567426234	0
1597.5	1.56741609	0
1600	1.567405978	0
1602.5	1.567395898	0
1605	1.567385881	0
1607.5	1.567375928	0
1610	1.567366007	0
1612.5	1.567356118	0
1615	1.567346292	0
1617.5	1.567336499	0
1620	1.567326769	0
1622.5	1.567317103	0
1625	1.567307436	0
1627.5	1.567297834	0
1630	1.567288295	0
1632.5	1.567278788	0
1635	1.567269313	0
1637.5	1.567259902	0
1640	1.567250522	0
1642.5	1.567241175	0
1645	1.567231891	0
1647.5	1.567222639	0
1650	1.567213419	0
1652.5	1.567204262	0
1655	1.567195138	0
1657.5	1.567186077	0
1660	1.567177016	0
1662.5	1.567168019	0
1665	1.567159086	0
1667.5	1.567150152	0
1670	1.567141283	0
1672.5	1.567132445	0
1675	1.567123671	0
1677.5	1.567114897	0
1680	1.567106187	0
1682.5	1.567097508	0
1685	1.567088893	0
1687.5	1.567080279	0
1690	1.567071728	0
1692.5	1.567063209	0
1695	1.567054721	0
1697.5	1.567046266	0
1700	1.567037874	0
